Date,Open,High,Low,Close,Adj Close,Volume
2016-01-04,75.260002,75.260002,73.250000,73.639999,63.179111,6727275
2016-01-05,74.449997,74.519997,72.639999,73.629997,63.170525,3786297
2016-01-06,73.000000,73.230003,70.680000,71.760002,61.566170,5168968
2016-01-07,69.000000,69.269997,68.000000,69.000000,59.198238,8261207
2016-01-08,69.989998,70.769997,68.139999,68.190002,58.503307,5717168
2016-01-11,68.099998,70.000000,67.750000,68.129997,58.451828,4609716
2016-01-12,68.540001,70.470001,68.309998,69.139999,59.318356,4398845
2016-01-13,70.570000,70.940002,67.800003,68.239998,58.546204,4599572
2016-01-14,67.050003,67.080002,63.840000,65.809998,56.461391,10950969
2016-01-15,65.919998,66.489998,63.509998,64.529999,55.363220,8193955
2016-01-18,64.500000,65.930000,63.779999,64.919998,55.697823,4642741
2016-01-19,66.580002,66.900002,65.279999,65.529999,56.221169,4689274
2016-01-20,64.000000,64.519997,62.820000,63.810001,54.745506,6507955
2016-01-21,64.000000,66.379997,63.349998,65.620003,56.298386,6398233
2016-01-22,67.269997,67.349998,66.129997,66.230003,56.821732,5354813
2016-01-25,66.709999,66.879997,64.599998,65.099998,55.852249,4685154
2016-01-26,63.000000,65.500000,62.730000,65.089996,55.843674,5476929
2016-01-27,64.910004,65.930000,64.269997,65.930000,56.564346,3437769
2016-01-28,65.589996,66.620003,63.580002,63.889999,54.814133,5146466
2016-01-29,65.040001,65.050003,63.150002,64.160004,55.045788,5146869
2016-02-01,64.230003,64.500000,62.459999,63.740002,54.685448,4043689
2016-02-02,63.750000,63.919998,62.480000,62.830002,53.904716,5550114
2016-02-03,62.610001,64.330002,61.840000,62.970001,54.024830,8368367
2016-02-04,59.950001,61.410000,59.160000,60.939999,52.283195,13178704
2016-02-05,61.900002,62.590000,60.500000,61.290001,52.583477,7660409
2016-02-08,61.549999,61.970001,59.099998,59.360001,50.927647,6993682
2016-02-09,59.189999,60.029999,57.720001,59.150002,50.747478,7513766
2016-02-10,59.500000,60.259998,58.360001,59.299999,50.876171,6378573
2016-02-11,58.660000,60.040001,57.009998,58.830002,50.472935,7314063
2016-02-12,59.439999,61.250000,59.259998,60.910000,52.257458,6194534
2016-02-15,62.779999,63.419998,62.259998,62.799999,53.878979,4847538
2016-02-16,63.540001,63.669998,61.689999,62.330002,53.475746,3631662
2016-02-17,62.730000,65.230003,62.599998,64.860001,55.646347,5332712
2016-02-18,65.500000,65.860001,64.150002,64.720001,55.526234,5131519
2016-02-19,62.020000,63.799999,62.000000,63.369999,54.368004,5782771
2016-02-22,64.199997,64.699997,64.099998,64.389999,55.243111,3410439
2016-02-23,64.010002,64.209999,62.599998,62.849998,53.921871,4309412
2016-02-24,62.849998,62.910000,59.669998,60.279999,51.716953,5966101
2016-02-25,61.169998,61.689999,59.669998,60.770000,52.137348,4743709
2016-02-26,61.799999,63.290001,61.419998,62.650002,53.750286,5322849
2016-02-29,61.730000,63.240002,61.400002,63.099998,54.136360,4205167
2016-03-01,62.889999,64.860001,62.680000,64.690002,55.500496,4037644
2016-03-02,65.279999,66.529999,65.099998,66.389999,56.959003,4623483
2016-03-03,66.660004,67.120003,65.519997,66.650002,57.182072,3445617
2016-03-04,67.150002,67.720001,66.449997,67.300003,57.739738,4370997
2016-03-07,67.099998,67.459999,66.010002,66.980003,57.465191,2659735
2016-03-08,66.120003,66.510002,64.519997,65.050003,55.809361,5379390
2016-03-09,65.040001,66.279999,64.349998,65.279999,56.006683,5464600
2016-03-10,65.300003,67.599998,62.360001,62.560001,53.673069,9273469
2016-03-11,63.970001,65.279999,63.529999,65.089996,55.843674,4118025
2016-03-14,66.320000,67.290001,65.779999,66.279999,56.864628,4659120
2016-03-15,66.139999,66.870003,65.839996,66.430000,56.993317,3847765
2016-03-16,67.129997,68.160004,66.989998,67.650002,58.040016,5149462
2016-03-17,68.500000,68.519997,65.209999,66.629997,57.164906,5172393
2016-03-18,66.650002,67.449997,66.169998,67.269997,57.713993,12196941
2016-03-21,67.089996,68.389999,66.360001,66.680000,57.207809,3594096
2016-03-22,66.129997,66.949997,65.150002,66.949997,57.439445,3901591
2016-03-23,67.480003,68.250000,66.800003,67.279999,57.722572,4952401
2016-03-24,67.199997,67.199997,65.739998,65.860001,56.504292,4241917
2016-03-29,66.839996,66.970001,65.470001,66.349998,56.924683,3536016
2016-03-30,66.760002,68.400002,66.750000,67.930000,58.280239,4317904
2016-03-31,67.800003,68.059998,67.120003,67.370003,57.799789,4836573
2016-04-01,66.900002,66.910004,65.430000,65.879997,56.521446,6164143
2016-04-04,66.019997,66.489998,65.070000,65.400002,56.109638,4730263
2016-04-05,64.699997,64.699997,62.910000,63.099998,54.136360,7781240
2016-04-06,63.810001,63.930000,61.779999,62.500000,53.621593,9900926
2016-04-07,60.040001,60.610001,59.070000,59.520000,53.865944,7746968
2016-04-08,59.830002,60.459999,59.599998,59.619999,53.956444,4859834
2016-04-11,59.529999,60.930000,58.900002,60.500000,54.752850,3797200
2016-04-12,60.689999,61.299999,60.000000,61.299999,55.476856,3428309
2016-04-13,62.330002,63.700001,62.189999,63.500000,57.467869,5072362
2016-04-14,63.509998,63.880001,63.189999,63.860001,57.793671,3212697
2016-04-15,63.490002,63.660000,62.389999,62.509998,56.571911,4849700
2016-04-18,61.630001,63.840000,61.450001,63.509998,57.476913,3933160
2016-04-19,63.799999,65.919998,63.419998,65.639999,59.404579,6463263
2016-04-20,65.180000,66.410004,64.930000,66.129997,59.848030,4349734
2016-04-21,66.269997,66.949997,65.800003,66.660004,60.327690,5087863
2016-04-22,62.900002,64.000000,61.599998,63.250000,57.241615,11679067
2016-04-25,62.959999,63.070000,61.799999,62.810001,56.843414,4386703
2016-04-26,62.919998,63.509998,62.669998,62.930000,56.952015,3441306
2016-04-27,62.950001,63.400002,62.189999,62.770000,56.807213,3582401
2016-04-28,62.419998,63.119999,61.660000,62.980000,56.997265,3277856
2016-04-29,62.320000,62.750000,60.689999,60.689999,54.924801,4969295
2016-05-02,61.150002,61.560001,60.709999,61.090000,55.286804,2395045
2016-05-03,60.910000,60.939999,59.240002,59.570000,53.911198,4762204
2016-05-04,59.400002,59.770000,58.430000,58.680000,53.105740,3733413
2016-05-05,58.779999,59.730000,58.630001,59.070000,53.458691,3214758
2016-05-06,58.849998,59.830002,58.439999,59.400002,53.757343,3542516
2016-05-09,60.040001,60.689999,59.470001,59.730000,54.055996,3206821
2016-05-10,60.090000,60.560001,59.590000,60.099998,54.390850,3378838
2016-05-11,60.320000,60.500000,58.970001,59.380001,53.739243,2940964
2016-05-12,59.000000,59.990002,58.540001,58.759998,53.178143,3282425
2016-05-13,58.500000,58.959999,58.209999,58.830002,53.241493,3546882
2016-05-17,59.299999,59.869999,57.070000,57.750000,52.264084,5576312
2016-05-18,57.360001,57.700001,56.759998,57.599998,52.128330,3693775
2016-05-19,57.500000,58.450001,56.910000,57.400002,51.947334,3431789
2016-05-20,56.980000,57.830002,56.869999,57.830002,52.336487,4501447
2016-05-23,57.900002,57.900002,56.450001,56.919998,51.512928,4655184
2016-05-24,56.709999,58.470001,56.189999,58.169998,52.644184,4671850
2016-05-25,59.000000,60.150002,58.529999,60.110001,54.399899,4884151
2016-05-26,60.060001,61.349998,60.009998,60.889999,55.105804,3722757
2016-05-27,61.040001,61.200001,60.380001,60.680000,54.915752,3165375
2016-05-30,60.990002,61.970001,60.430000,61.599998,55.748356,3651235
2016-05-31,61.830002,62.099998,60.869999,61.389999,55.558308,3861880
2016-06-01,61.360001,61.410000,60.070000,60.349998,54.617096,3125606
2016-06-02,60.150002,60.840000,59.810001,60.610001,54.852402,2351638
2016-06-03,60.910000,61.080002,58.599998,59.279999,53.648743,4894783
2016-06-06,59.450001,59.889999,59.240002,59.360001,53.721146,1991984
2016-06-07,59.770000,60.700001,59.720001,60.119999,54.408947,3400427
2016-06-08,59.860001,60.020000,59.070000,59.610001,53.947395,2537212
2016-06-09,59.580002,59.610001,58.230000,58.779999,53.196239,3397921
2016-06-10,58.400002,58.459999,57.099998,57.509998,52.046879,4425349
2016-06-13,56.750000,57.090000,56.369999,56.369999,51.015175,3832164
2016-06-14,56.000000,56.020000,54.799999,55.049999,49.820568,5755444
2016-06-15,55.689999,55.970001,54.509998,55.509998,50.236870,5651888
2016-06-16,54.360001,55.509998,54.150002,55.310001,50.055874,4596287
2016-06-17,55.830002,56.389999,55.470001,55.869999,50.562672,6692608
2016-06-20,57.700001,58.529999,57.480000,58.349998,52.807087,4514846
2016-06-21,58.490002,59.139999,57.650002,58.660000,53.087639,3298624
2016-06-22,59.180000,59.770000,58.810001,59.000000,53.395344,3346770
2016-06-23,59.290001,60.549999,59.110001,59.990002,54.291298,4228525
2016-06-24,52.560001,56.480000,52.000000,55.060001,49.829620,18125822
2016-06-27,54.540001,55.270000,52.930000,53.369999,48.300159,8546085
2016-06-28,54.730000,54.799999,53.419998,53.680000,48.580711,5437720
2016-06-29,54.000000,54.459999,53.459999,53.730000,48.625957,5021940
2016-06-30,53.840000,53.849998,52.919998,53.520000,48.435909,5333051
2016-07-01,53.930000,55.119999,53.790001,54.740002,49.540016,4738080
2016-07-04,55.099998,55.250000,53.919998,54.240002,49.087517,2589208
2016-07-05,53.950001,53.970001,52.160000,52.270000,47.304653,5866923
2016-07-06,52.000000,52.189999,50.830002,51.970001,47.033154,5684649
2016-07-07,52.400002,53.220001,51.970001,52.279999,47.313702,3782338
2016-07-08,52.139999,54.470001,51.980000,54.150002,49.006065,4692830
2016-07-11,54.680000,55.439999,54.220001,55.220001,49.974422,3635888
2016-07-12,57.099998,58.070000,56.860001,57.650002,52.173584,7153151
2016-07-13,57.650002,58.660000,57.009998,57.259998,51.820629,4447419
2016-07-14,58.200001,58.889999,58.009998,58.490002,52.933792,4257337
2016-07-15,58.200001,58.700001,57.730000,58.389999,52.843288,3546224
2016-07-18,58.599998,59.330002,58.080002,58.310001,52.770889,3237493
2016-07-19,58.220001,58.410000,56.560001,57.660000,52.182636,3938776
2016-07-20,58.220001,59.200001,57.560001,58.680000,53.105740,3913727
2016-07-21,59.250000,59.970001,59.000000,59.450001,53.802593,4759115
2016-07-22,59.369999,59.820000,58.910000,59.509998,53.856892,2921444
2016-07-25,59.540001,60.630001,59.299999,59.950001,54.255096,3399925
2016-07-26,59.980000,61.060001,59.680000,60.759998,54.988148,3710766
2016-07-27,61.470001,62.490002,61.459999,61.919998,56.037960,4694666
2016-07-28,62.029999,62.430000,60.310001,60.310001,54.580902,5868550
2016-07-29,60.750000,61.009998,60.330002,60.820000,55.042454,3614696
2016-08-01,61.400002,61.630001,60.520000,60.709999,54.942902,2610886
2016-08-02,60.580002,60.820000,58.590000,58.910000,53.313892,4624399
2016-08-03,59.000000,59.570000,58.009998,59.349998,53.712093,3086409
2016-08-04,59.759998,60.330002,58.930000,59.340000,53.703045,2527931
2016-08-05,59.639999,61.279999,59.490002,61.029999,55.232502,3757678
2016-08-08,61.619999,61.799999,60.900002,61.169998,55.359203,2817216
2016-08-09,61.240002,62.959999,60.910000,62.869999,56.897713,4239629
2016-08-10,62.700001,63.000000,62.299999,62.680000,56.725761,2815882
2016-08-11,63.000000,63.119999,62.119999,63.080002,57.087769,2739544
2016-08-12,63.000000,63.070000,62.599998,62.889999,56.915817,2340204
2016-08-15,63.090000,63.799999,62.939999,63.299999,57.286865,1953446
2016-08-16,62.930000,63.080002,62.259998,62.520000,56.580963,2818122
2016-08-17,62.549999,62.720001,61.439999,61.770000,55.902206,2610381
2016-08-18,62.279999,62.419998,61.680000,62.009998,56.119408,1728579
2016-08-19,62.189999,62.189999,60.930000,61.410000,55.576405,2777285
2016-08-22,61.400002,62.400002,60.900002,61.410000,55.576405,2470843
2016-08-23,61.639999,62.240002,61.299999,61.860001,55.983658,1909082
2016-08-24,61.599998,62.610001,61.209999,62.119999,56.218960,1973087
2016-08-25,61.599998,61.669998,60.590000,61.169998,55.359203,3480826
2016-08-26,61.220001,61.980000,60.930000,61.700001,55.838860,2295581
2016-08-29,61.189999,61.570000,60.650002,61.230000,55.413506,1903555
2016-08-30,61.590000,62.599998,61.299999,62.310001,56.390911,2858085
2016-08-31,62.259998,62.599998,62.000000,62.080002,56.182758,2399082
2016-09-01,62.290001,62.980000,61.369999,61.700001,55.838860,2969048
2016-09-02,61.950001,62.910000,61.279999,62.860001,56.888664,3000647
2016-09-05,63.070000,63.290001,62.709999,62.779999,56.816265,1794916
2016-09-06,63.220001,63.790001,62.869999,63.290001,57.277817,3135093
2016-09-07,63.599998,64.430000,63.450001,64.169998,58.074219,3274724
2016-09-08,64.220001,64.589996,62.790001,63.750000,57.694118,4052080
2016-09-09,63.619999,63.910000,63.099998,63.459999,57.431667,2424982
2016-09-12,62.090000,62.560001,61.520000,62.400002,56.472363,4316324
2016-09-13,62.720001,62.959999,61.889999,61.889999,56.010807,2970792
2016-09-14,62.150002,62.230000,61.209999,61.529999,55.685005,3528920
2016-09-15,61.419998,61.959999,60.689999,61.830002,55.956512,3270561
2016-09-16,61.849998,61.959999,60.139999,60.410000,54.671398,8110001
2016-09-19,61.000000,61.630001,60.720001,61.330002,55.504009,2670519
2016-09-20,61.369999,61.650002,61.099998,61.099998,55.295853,2155340
2016-09-21,61.630001,61.980000,61.419998,61.610001,55.757408,2253249
2016-09-22,62.299999,63.880001,62.130001,63.419998,57.395466,5409323
2016-09-23,63.470001,63.700001,63.180000,63.520000,57.485970,2629710
2016-09-26,63.150002,63.200001,61.740002,61.880001,56.001759,3518656
2016-09-27,62.330002,62.439999,60.580002,61.500000,55.657856,3483025
2016-09-28,61.740002,62.689999,61.630001,62.060001,56.164661,2818388
2016-09-29,62.840000,63.330002,61.869999,62.099998,56.200859,2577280
2016-09-30,61.180000,63.000000,60.599998,62.709999,56.752914,4703767
2016-10-04,62.849998,64.589996,62.740002,64.370003,58.255226,6187139
2016-10-05,63.650002,65.000000,63.099998,64.680000,58.535774,4118203
2016-10-06,64.900002,65.160004,64.040001,64.349998,58.237122,2896375
2016-10-07,64.180000,64.239998,63.290001,63.869999,57.802719,4060984
2016-10-10,63.849998,65.070000,63.599998,64.620003,58.481480,3446983
2016-10-11,64.639999,65.199997,64.269997,64.410004,58.291424,3449477
2016-10-12,64.459999,64.750000,63.869999,64.120003,58.028976,2974012
2016-10-13,63.599998,63.599998,62.700001,63.200001,57.196365,3737083
2016-10-14,63.520000,64.650002,63.400002,64.160004,58.065178,3724671
2016-10-17,64.089996,64.290001,63.509998,63.869999,57.802719,2740994
2016-10-18,64.120003,64.650002,63.889999,64.339996,58.228069,2827894
2016-10-19,64.430000,65.540001,64.250000,65.199997,59.006374,4148048
2016-10-20,65.790001,66.500000,65.339996,66.000000,59.730381,4922974
2016-10-21,64.919998,65.260002,63.900002,64.620003,58.481480,7106226
2016-10-24,64.629997,65.610001,64.550003,64.889999,58.725822,3670756
2016-10-25,65.029999,65.500000,64.809998,64.879997,58.716774,2668041
2016-10-26,64.699997,65.430000,64.169998,65.220001,59.024479,3032932
2016-10-27,65.080002,65.699997,64.940002,65.449997,59.232628,2605621
2016-10-28,65.080002,65.459999,64.330002,65.339996,59.133076,3043265
2016-10-31,65.059998,65.320000,64.559998,64.910004,58.743931,3119202
2016-11-01,65.260002,65.339996,63.889999,64.120003,58.028976,2884178
2016-11-02,63.610001,63.660000,62.119999,62.439999,56.508560,3835876
2016-11-03,62.400002,62.919998,62.049999,62.189999,56.282307,2634577
2016-11-04,61.779999,62.099998,61.250000,61.849998,55.974606,2973965
2016-11-07,62.970001,63.450001,62.549999,63.320000,57.304966,2902126
2016-11-08,63.279999,63.740002,62.939999,63.740002,57.685070,3013896
2016-11-09,60.400002,63.889999,60.020000,63.889999,57.820820,8379349
2016-11-10,64.099998,64.629997,63.049999,63.689999,57.639816,5029653
2016-11-11,63.840000,65.059998,63.799999,64.769997,58.617222,5384674
2016-11-14,65.000000,66.199997,64.839996,64.879997,58.716774,5132614
2016-11-15,64.910004,65.279999,64.459999,65.150002,58.961132,2873184
2016-11-16,65.529999,65.599998,64.070000,64.800003,58.644379,2710541
2016-11-17,64.709999,65.459999,64.680000,65.379997,59.169277,3176798
2016-11-18,65.589996,65.940002,65.239998,65.260002,59.060680,3510246
2016-11-21,65.459999,65.980003,65.099998,65.540001,59.314079,3256744
2016-11-22,65.860001,66.360001,65.500000,65.519997,59.295979,3017931
2016-11-23,65.120003,65.320000,63.959999,64.500000,58.372871,4489939
2016-11-24,64.629997,64.879997,64.379997,64.589996,58.454319,1807063
2016-11-25,64.760002,64.940002,64.430000,64.720001,58.571976,1619118
2016-11-28,64.250000,64.470001,63.779999,63.990002,57.911320,2299489
2016-11-29,64.010002,64.010002,62.919998,63.540001,57.504070,3531039
2016-11-30,63.299999,63.639999,62.520000,62.759998,56.798161,3865608
2016-12-01,62.400002,62.779999,61.950001,62.389999,56.463310,3226204
2016-12-02,61.900002,62.869999,61.610001,62.470001,56.535713,3108413
2016-12-05,62.340000,64.410004,62.330002,64.070000,57.983723,4384818
2016-12-06,64.029999,64.650002,63.720001,64.489998,58.363823,3216135
2016-12-07,65.050003,66.989998,65.050003,66.599998,60.273384,6357120
2016-12-08,66.930000,68.720001,66.739998,68.239998,61.757595,7743235
2016-12-09,68.199997,68.709999,67.669998,68.300003,61.811901,4633045
2016-12-12,68.110001,68.570000,67.610001,68.180000,61.703293,3653103
2016-12-13,68.199997,69.250000,68.129997,68.959999,62.409203,4292244
2016-12-14,68.980003,69.279999,68.470001,69.050003,62.490654,3815329
2016-12-15,69.150002,70.370003,68.940002,70.110001,63.449959,6989433
2016-12-16,70.000000,71.029999,69.900002,70.620003,63.911514,10461480
2016-12-19,70.330002,71.029999,70.120003,70.980003,64.237320,2876302
2016-12-20,70.779999,71.269997,70.410004,71.110001,64.354958,3566296
2016-12-21,71.040001,71.400002,70.959999,71.250000,64.481667,2600653
2016-12-22,70.699997,71.290001,70.440002,70.910004,64.173965,2562334
2016-12-23,70.900002,71.199997,70.739998,71.029999,64.282562,1871796
2016-12-27,71.099998,71.190002,70.820000,70.959999,64.219208,1084695
2016-12-28,70.910004,71.180000,70.800003,70.870003,64.137764,1842031
2016-12-29,70.180000,70.650002,70.099998,70.400002,63.712410,1961788
2016-12-30,70.220001,70.720001,70.010002,70.720001,64.002014,1919994
2017-01-02,70.180000,71.449997,69.820000,71.180000,64.418312,1995651
2017-01-03,71.400002,72.639999,71.379997,72.099998,65.250916,4142505
2017-01-04,72.449997,72.519997,71.019997,72.070000,65.223763,2912014
2017-01-05,71.720001,72.639999,71.690002,72.050003,65.205673,3181036
2017-01-06,71.849998,72.160004,71.580002,72.040001,65.196625,2128257
2017-01-09,72.209999,72.489998,71.430000,71.980003,65.142319,2724031
2017-01-10,72.000000,72.449997,71.680000,72.230003,65.368576,2874266
2017-01-11,72.150002,73.230003,72.059998,72.830002,65.911575,3541076
2017-01-12,72.620003,72.959999,68.440002,70.790001,64.065361,6891069
2017-01-13,71.150002,71.790001,70.589996,71.330002,64.554062,3851297
2017-01-16,69.910004,70.500000,69.769997,70.250000,63.576660,3080777
2017-01-17,69.800003,70.730003,68.940002,70.349998,63.667152,3341570
2017-01-18,70.360001,70.699997,70.110001,70.669998,63.956757,2065365
2017-01-19,70.779999,71.120003,70.320000,70.680000,63.965805,2726467
2017-01-20,70.500000,70.970001,70.059998,70.639999,63.929607,4109238
2017-01-23,70.040001,70.589996,69.730003,70.169998,63.504257,2660136
2017-01-24,70.419998,71.449997,70.309998,71.180000,64.418312,3025662
2017-01-25,71.800003,72.860001,71.800003,72.349998,65.477165,4232038
2017-01-26,72.879997,72.949997,71.309998,71.559998,64.762207,3407985
2017-01-27,71.510002,71.639999,70.389999,70.720001,64.002014,3436066
2017-01-30,70.550003,70.730003,70.000000,70.449997,63.757652,3099514
2017-01-31,70.589996,70.980003,69.349998,69.349998,62.762150,4160165
2017-02-01,70.250000,70.940002,69.699997,70.019997,63.368507,4015812
2017-02-02,68.599998,68.650002,67.110001,68.099998,61.630890,9187905
2017-02-03,68.269997,68.419998,67.449997,67.650002,61.223644,4319994
2017-02-06,67.739998,68.099998,66.930000,67.209999,60.825439,4074818
2017-02-07,66.570000,67.330002,66.330002,66.760002,60.418186,3767313
2017-02-08,66.300003,67.160004,66.129997,66.660004,60.327690,3714044
2017-02-09,66.989998,67.550003,66.360001,67.290001,60.897839,3982671
2017-02-10,67.849998,67.900002,66.889999,67.120003,60.743992,3303073
2017-02-13,67.300003,68.360001,67.199997,67.889999,61.440838,3130096
2017-02-14,68.019997,68.290001,67.550003,68.110001,61.639942,2865966
2017-02-15,68.510002,68.769997,67.459999,68.059998,61.594692,3341348
2017-02-16,68.150002,68.300003,67.480003,67.790001,61.350346,2687252
2017-02-17,67.720001,67.720001,66.980003,67.610001,61.187443,3585859
2017-02-20,68.000000,68.169998,67.730003,67.790001,61.350346,1863790
2017-02-21,67.959999,69.120003,67.699997,68.720001,62.191998,4034785
2017-02-22,69.209999,69.580002,68.760002,69.389999,62.798347,3713552
2017-02-23,69.529999,70.339996,69.190002,69.279999,62.698799,3245974
2017-02-24,69.239998,69.470001,67.959999,68.760002,62.228199,4054394
2017-02-27,69.000000,69.250000,68.650002,68.739998,62.210098,2183060
2017-02-28,68.769997,68.910004,68.139999,68.639999,62.119598,2962506
2017-03-01,69.199997,70.199997,68.910004,69.830002,63.196552,4507628
2017-03-02,69.690002,70.000000,69.540001,69.879997,63.241806,2117284
2017-03-03,69.959999,70.040001,69.410004,69.970001,63.323257,2848354
2017-03-06,69.809998,69.900002,69.290001,69.540001,62.934101,2375157
2017-03-07,69.769997,70.500000,69.449997,70.099998,63.440907,3603173
2017-03-08,70.000000,70.660004,69.779999,70.000000,63.350407,2718989
2017-03-09,70.010002,70.430000,69.260002,69.970001,63.323257,4270719
2017-03-10,70.180000,70.730003,69.699997,70.000000,63.350407,3780512
2017-03-13,70.099998,71.000000,69.820000,70.820000,64.092506,4338355
2017-03-14,70.989998,71.099998,70.389999,70.760002,64.038216,3593623
2017-03-15,70.680000,71.459999,70.419998,70.980003,64.237320,3728131
2017-03-16,71.849998,71.930000,70.980003,71.290001,64.517860,3802716
2017-03-17,70.800003,71.190002,70.300003,71.160004,64.400223,6108214
2017-03-20,71.000000,71.220001,70.760002,70.970001,64.228256,2189035
2017-03-21,71.250000,71.730003,70.349998,70.550003,63.848164,4258882
2017-03-22,70.099998,70.489998,69.480003,69.900002,63.259903,5906975
2017-03-23,70.120003,70.769997,69.849998,70.580002,63.875313,3346746
2017-03-24,70.839996,70.849998,69.959999,70.559998,63.857204,3071494
2017-03-27,70.199997,70.480003,69.949997,70.480003,63.784813,3767968
2017-03-28,70.809998,71.839996,70.750000,71.629997,64.825562,4251826
2017-03-29,72.199997,73.000000,72.160004,72.360001,65.486221,7223056
2017-03-30,69.559998,69.769997,69.040001,69.330002,65.694687,4964191
2017-03-31,69.300003,69.440002,68.930000,69.199997,65.571495,4244276
2017-04-03,69.550003,69.680000,68.269997,68.449997,64.860825,3856661
2017-04-04,68.099998,68.150002,67.040001,67.739998,64.188049,4776608
2017-04-05,67.599998,67.650002,66.820000,67.059998,63.543709,3625677
2017-04-06,66.580002,67.120003,66.099998,67.120003,63.600567,3517576
2017-04-07,66.879997,67.089996,66.629997,67.000000,63.486855,3326080
2017-04-10,67.360001,67.400002,66.660004,66.930000,63.420528,2146075
2017-04-11,66.779999,67.070000,65.980003,66.639999,63.145733,3178707
2017-04-12,68.400002,68.500000,66.720001,66.820000,63.316296,4865249
2017-04-13,67.000000,67.169998,66.160004,66.419998,62.937267,3047867
2017-04-18,66.480003,66.540001,64.959999,65.550003,62.112888,5004779
2017-04-19,65.550003,66.019997,65.400002,65.879997,62.425579,2853244
2017-04-20,65.550003,66.389999,65.410004,66.290001,62.814087,3296020
2017-04-21,66.300003,66.669998,66.099998,66.169998,62.700375,4039527
2017-04-24,67.480003,68.099998,67.389999,67.779999,64.225952,5466964
2017-04-25,68.129997,68.949997,67.870003,68.699997,65.097717,4786461
2017-04-26,68.699997,69.230003,67.860001,68.839996,65.230370,4549271
2017-04-27,68.690002,68.750000,67.760002,68.290001,64.709213,3794586
2017-04-28,68.000000,68.769997,67.889999,68.400002,64.813446,3910427
2017-05-02,68.510002,68.570000,67.480003,67.959999,64.396515,4045988
2017-05-03,67.559998,67.809998,67.050003,67.809998,64.254379,3212749
2017-05-04,68.000000,68.610001,67.500000,68.010002,64.443901,3624940
2017-05-05,67.959999,68.760002,67.739998,68.519997,64.927155,3791930
2017-05-08,69.290001,69.290001,68.330002,68.750000,65.145096,3034172
2017-05-09,68.889999,69.209999,68.550003,68.589996,64.993484,3091372
2017-05-10,68.500000,69.160004,68.449997,68.849998,65.239853,2376872
2017-05-11,69.029999,69.129997,68.389999,68.739998,65.135620,2647382
2017-05-12,68.860001,69.199997,68.650002,69.070000,65.448318,2974449
2017-05-15,69.300003,69.389999,68.559998,69.150002,65.524124,2241311
2017-05-16,68.900002,69.120003,68.459999,68.779999,65.173523,2819113
2017-05-17,68.199997,68.709999,67.889999,68.250000,64.671310,3426526
2017-05-18,68.099998,68.120003,66.940002,67.720001,64.169106,5212009
2017-05-19,67.900002,68.290001,67.699997,67.889999,64.330185,3836243
2017-05-22,68.019997,68.250000,67.230003,67.739998,64.188049,3061817
2017-05-23,67.739998,68.690002,66.730003,67.190002,63.666897,6589962
2017-05-24,66.400002,66.669998,65.120003,66.099998,62.634045,6059924
2017-05-25,66.169998,66.250000,65.489998,65.790001,62.340305,2992434
2017-05-26,65.480003,65.739998,64.699997,65.379997,61.951797,3349876
2017-05-29,65.199997,65.440002,64.879997,65.440002,62.008656,1791439
2017-05-30,65.050003,65.639999,64.849998,65.199997,61.781235,2990447
2017-05-31,65.160004,65.440002,64.519997,64.610001,61.222176,4282853
2017-06-01,64.730003,65.550003,64.370003,65.070000,61.658054,4025852
2017-06-02,65.529999,66.550003,65.349998,65.839996,62.387676,4152509
2017-06-05,65.839996,65.839996,65.839996,65.839996,62.387676,0
2017-06-06,65.739998,65.949997,65.120003,65.529999,62.093933,3453813
2017-06-07,65.400002,65.870003,65.120003,65.169998,61.752811,2586092
2017-06-08,65.000000,65.370003,64.800003,65.160004,61.743340,2561811
2017-06-09,65.110001,65.739998,64.860001,65.459999,62.027607,2641147
2017-06-12,65.430000,66.540001,65.269997,65.639999,62.198166,4544238
2017-06-13,65.980003,66.099998,65.709999,65.900002,62.444534,2270434
2017-06-14,65.989998,66.309998,65.449997,65.709999,62.264496,3678420
2017-06-15,65.769997,65.809998,64.660004,65.250000,61.828617,4207551
2017-06-16,65.550003,65.769997,65.099998,65.199997,61.781235,9209382
2017-06-19,65.820000,66.309998,65.709999,65.709999,62.264496,2475263
2017-06-20,66.169998,66.190002,65.470001,65.570000,62.131840,2326684
2017-06-21,65.519997,65.599998,64.849998,65.449997,62.018127,2467010
2017-06-22,65.360001,65.839996,64.919998,65.489998,62.056030,2884562
2017-06-23,65.449997,65.690002,64.820000,65.339996,61.913895,2603281
2017-06-26,65.500000,66.089996,65.250000,65.370003,61.942329,2548809
2017-06-27,65.000000,65.370003,64.529999,65.080002,61.667534,3509086
2017-06-28,64.750000,65.279999,64.260002,64.900002,61.496971,3139016
2017-06-29,65.290001,65.339996,64.000000,64.309998,60.937904,4196610
2017-06-30,64.300003,64.510002,63.090000,63.369999,60.047195,5067499
2017-07-03,63.770000,64.480003,63.560001,64.080002,60.719967,3007027
2017-07-04,63.820000,64.529999,63.820000,64.099998,60.738914,2047146
2017-07-05,64.010002,64.139999,63.250000,63.740002,60.397797,3714665
2017-07-06,63.910000,64.139999,63.090000,63.360001,60.037720,4217803
2017-07-07,63.349998,63.570000,63.130001,63.480000,60.151428,2300559
2017-07-10,63.810001,63.910000,63.150002,63.360001,60.037720,2502879
2017-07-11,63.799999,64.599998,63.680000,64.150002,60.786297,3748374
2017-07-12,64.599998,65.769997,64.349998,65.459999,62.027607,4161260
2017-07-13,63.500000,65.160004,63.500000,65.150002,61.733864,5940234
2017-07-14,64.709999,65.139999,64.290001,64.870003,61.468544,4637093
2017-07-17,64.940002,65.129997,64.540001,64.680000,61.288506,2051645
2017-07-18,64.440002,64.480003,63.660000,64.169998,60.805244,4030644
2017-07-19,64.449997,64.589996,63.880001,64.139999,60.776821,2649587
2017-07-20,64.309998,64.629997,63.439999,63.900002,60.549408,3587833
2017-07-21,63.799999,63.860001,61.880001,62.580002,59.298622,8756451
2017-07-24,60.570000,61.400002,59.959999,60.919998,57.725658,10653268
2017-07-25,61.230000,61.599998,60.869999,61.060001,57.858322,5600252
2017-07-26,61.060001,61.840000,60.270000,60.599998,57.422440,6415771
2017-07-27,60.230000,60.400002,59.810001,60.290001,57.128696,4674766
2017-07-28,59.849998,59.849998,59.090000,59.849998,56.711765,5191979
2017-07-31,59.509998,59.790001,59.009998,59.290001,56.181129,4138090
2017-08-01,59.639999,60.189999,59.009998,59.849998,56.711765,4173829
2017-08-02,60.090000,60.669998,59.470001,59.799999,56.664387,4564647
2017-08-03,59.799999,60.070000,59.529999,59.770000,56.635963,2683386
2017-08-04,59.660000,60.959999,59.500000,60.529999,57.356110,4052212
2017-08-07,60.790001,60.889999,60.090000,60.410000,57.242401,2712178
2017-08-08,60.240002,60.900002,59.970001,60.500000,57.327682,2444934
2017-08-09,60.080002,60.270000,59.660000,60.020000,56.872852,3438240
2017-08-10,60.000000,60.000000,59.389999,59.869999,56.730717,3258499
2017-08-11,59.779999,60.110001,59.610001,59.799999,56.664387,2783382
2017-08-14,60.180000,60.509998,60.080002,60.150002,56.996037,1965341
2017-08-15,60.450001,60.759998,60.250000,60.250000,57.090794,1838174
2017-08-16,60.689999,60.750000,60.349998,60.520000,57.346634,1956465
2017-08-17,60.380001,60.730000,60.220001,60.419998,57.251877,2760279
2017-08-18,60.099998,60.380001,59.970001,60.310001,57.147648,3931874
2017-08-21,60.110001,60.419998,59.880001,60.110001,56.958134,2710496
2017-08-22,60.330002,60.849998,60.169998,60.830002,57.640381,3972741
2017-08-23,60.880001,61.029999,60.630001,60.770000,57.583527,2628072
2017-08-24,60.889999,62.090000,60.680000,61.650002,58.417385,4702774
2017-08-25,61.810001,62.570000,61.639999,62.169998,58.910114,4377433
2017-08-28,62.009998,62.160000,61.580002,61.900002,58.654278,1562003
2017-08-29,61.540001,61.630001,60.750000,61.520000,58.294201,3478515
2017-08-30,61.849998,61.919998,61.450001,61.590000,58.360531,2228234
2017-08-31,61.610001,61.849998,61.009998,61.230000,58.019405,3174096
2017-09-01,61.380001,62.160000,61.220001,61.799999,58.559517,3042884
2017-09-04,61.400002,62.009998,61.310001,61.840000,58.597420,1802854
2017-09-05,62.009998,62.919998,61.770000,62.419998,59.147007,3113816
2017-09-06,63.700001,64.959999,63.349998,64.400002,61.023190,8218293
2017-09-07,65.000000,65.769997,64.839996,64.910004,61.506451,5692157
2017-09-08,64.589996,65.400002,64.529999,64.830002,61.430641,2733424
2017-09-11,65.250000,65.250000,63.470001,64.650002,61.260078,5568461
2017-09-12,64.959999,65.779999,64.690002,65.260002,61.838097,4041692
2017-09-13,65.099998,65.669998,65.029999,65.669998,62.226593,3366515
2017-09-14,65.650002,65.980003,65.570000,65.830002,62.378208,3550634
2017-09-15,65.989998,66.410004,65.580002,66.250000,62.776184,9215271
2017-09-18,66.660004,66.930000,66.269997,66.500000,63.013073,2218963
2017-09-19,66.360001,66.669998,66.279999,66.510002,63.022552,1878904
2017-09-20,66.260002,66.629997,66.169998,66.580002,63.088882,1875054
2017-09-21,66.610001,67.029999,66.610001,66.870003,63.363674,1963652
2017-09-22,66.699997,67.169998,66.519997,66.599998,63.107830,2597241
2017-09-25,66.500000,66.860001,66.250000,66.699997,63.202583,1846039
2017-09-26,66.589996,67.410004,66.510002,66.739998,63.240486,2557395
2017-09-27,66.800003,67.190002,66.709999,66.830002,63.325771,2193464
2017-09-28,67.000000,67.239998,66.510002,66.650002,63.155209,2189409
2017-09-29,66.620003,67.470001,66.070000,67.470001,63.932213,4133755
2017-10-02,67.620003,67.849998,67.440002,67.620003,64.074348,2149328
2017-10-03,67.620003,67.620003,67.620003,67.620003,64.074348,0
2017-10-04,68.300003,68.910004,68.000000,68.440002,64.851349,4333978
2017-10-05,68.510002,69.040001,68.440002,68.440002,64.851349,3189922
2017-10-06,68.750000,69.080002,68.519997,68.699997,65.097717,2475376
2017-10-09,68.949997,69.070000,68.559998,68.620003,65.021912,1592398
2017-10-10,68.500000,68.540001,67.660004,67.980003,64.415474,3582439
2017-10-11,68.129997,68.550003,68.000000,68.089996,64.519699,2273228
2017-10-12,68.160004,68.269997,67.900002,68.010002,64.443901,1970852
2017-10-13,68.050003,68.169998,67.599998,67.910004,64.349144,1808801
2017-10-16,67.989998,68.940002,67.949997,68.379997,64.794495,3547375
2017-10-17,68.220001,69.180000,68.220001,68.720001,65.116669,3179358
2017-10-18,68.959999,69.500000,68.779999,69.320000,65.685204,2659894
2017-10-19,69.500000,69.599998,68.169998,68.940002,65.325134,3339973
2017-10-20,69.760002,69.830002,68.070000,68.360001,64.775543,4735810
2017-10-23,68.519997,69.150002,68.330002,68.760002,65.154572,2599731
2017-10-24,68.570000,69.769997,68.459999,69.400002,65.761017,3395679
2017-10-25,69.339996,69.870003,68.839996,69.250000,65.618881,2898836
2017-10-26,69.230003,70.150002,69.019997,69.949997,66.282173,3893181
2017-10-27,70.139999,71.699997,70.099998,71.110001,67.381348,5655575
2017-10-30,71.139999,71.580002,71.070000,71.290001,67.551910,2414098
2017-10-31,71.290001,71.290001,71.290001,71.290001,67.551910,0
2017-11-01,72.000000,73.139999,71.800003,73.000000,69.172249,5122228
2017-11-02,72.709999,73.370003,72.610001,73.089996,69.257523,2740441
2017-11-03,73.339996,73.639999,73.110001,73.250000,69.409134,2784213
2017-11-06,73.150002,73.430000,72.790001,72.790001,68.973259,2387060
2017-11-07,73.099998,73.239998,72.029999,72.220001,68.433144,2802675
2017-11-08,72.150002,72.589996,71.059998,71.620003,67.864609,3409883
2017-11-09,71.699997,72.209999,70.809998,70.940002,67.220268,3593721
2017-11-10,71.000000,71.220001,70.199997,70.570000,66.869659,3496450
2017-11-13,70.690002,70.959999,69.430000,70.279999,66.594872,2908362
2017-11-14,70.610001,70.709999,69.660004,69.699997,66.045280,2494238
2017-11-15,69.190002,69.339996,68.559998,69.309998,65.675728,3621236
2017-11-16,69.699997,70.080002,69.300003,69.339996,65.704155,2329663
2017-11-17,69.410004,69.589996,68.849998,68.970001,65.353561,2743588
2017-11-20,68.480003,69.879997,68.269997,69.459999,65.817863,2837750
2017-11-21,69.540001,71.150002,69.169998,70.599998,66.898087,4419610
2017-11-22,70.680000,71.050003,69.980003,69.980003,66.310600,2451335
2017-11-23,69.610001,70.320000,69.419998,69.900002,66.234795,1860398
2017-11-24,69.849998,70.529999,69.809998,70.000000,66.329552,1493046
2017-11-27,69.839996,70.309998,69.470001,69.889999,66.225319,1777733
2017-11-28,69.949997,70.180000,69.440002,69.949997,66.282173,1924543
2017-11-29,70.580002,70.900002,69.910004,70.129997,66.452736,2913475
2017-11-30,70.129997,70.529999,69.510002,69.519997,65.874718,3737442
2017-12-01,69.720001,69.720001,67.849998,68.290001,64.709213,5012341
2017-12-04,69.309998,69.760002,68.820000,69.559998,65.912621,2758849
2017-12-05,69.559998,70.220001,69.320000,70.019997,66.348503,3330116
2017-12-06,69.470001,69.790001,69.010002,69.629997,65.978951,2768101
2017-12-07,70.000000,70.139999,69.360001,69.599998,65.950523,1794155
2017-12-08,70.199997,70.849998,70.099998,70.300003,66.613823,3494459
2017-12-11,70.300003,70.599998,70.209999,70.209999,66.528542,2217906
2017-12-12,70.260002,70.739998,69.779999,70.739998,67.030746,2867586
2017-12-13,70.830002,71.360001,70.699997,71.000000,67.277115,3282192
2017-12-14,71.209999,71.470001,70.589996,70.889999,67.172882,3420309
2017-12-15,70.800003,71.010002,70.360001,71.010002,67.286591,6986099
2017-12-18,71.300003,71.849998,71.239998,71.500000,67.750900,3437619
2017-12-19,71.370003,71.669998,71.169998,71.169998,67.438202,1827922
2017-12-20,71.279999,71.720001,70.830002,71.050003,67.324501,2699213
2017-12-21,71.000000,71.620003,70.900002,71.430000,67.684570,2011009
2017-12-22,71.260002,71.320000,70.989998,71.309998,67.570862,1912499
2017-12-27,71.500000,72.040001,71.239998,71.239998,67.504532,1753660
2017-12-28,71.209999,71.269997,70.800003,70.900002,67.182358,1629967
2017-12-29,70.830002,70.970001,70.589996,70.800003,67.087608,1740805
2018-01-02,70.739998,71.080002,69.330002,70.620003,66.917046,3986093
2018-01-03,70.750000,71.550003,70.680000,71.190002,67.457153,2917382
2018-01-04,71.800003,72.500000,71.739998,72.019997,68.243629,3633663
2018-01-05,72.250000,72.980003,72.160004,72.980003,69.153297,3492462
2018-01-08,73.239998,74.209999,73.209999,73.750000,69.882919,3954673
2018-01-09,73.900002,74.709999,73.680000,74.160004,70.271423,3327789
2018-01-10,74.000000,74.480003,73.720001,74.150002,70.261948,2839048
2018-01-11,74.199997,74.360001,72.940002,73.610001,69.750259,3319565
2018-01-12,73.930000,74.459999,73.800003,74.180000,70.290375,3218001
2018-01-15,74.199997,74.309998,73.510002,74.010002,70.129288,2160874
2018-01-16,74.019997,74.989998,73.769997,74.349998,70.451454,3415340
2018-01-17,73.900002,74.379997,73.559998,73.930000,70.053482,2805365
2018-01-18,74.290001,74.519997,73.879997,74.519997,70.612541,3227664
2018-01-19,74.370003,75.279999,74.370003,75.010002,71.076851,3768230
2018-01-22,74.879997,75.660004,74.769997,75.540001,71.579063,2919686
2018-01-23,76.000000,76.330002,75.379997,75.690002,71.721199,3276510
2018-01-24,76.000000,76.480003,75.410004,75.419998,71.465355,3549521
2018-01-25,75.139999,75.379997,73.910004,74.389999,70.489365,4433535
2018-01-26,73.989998,74.809998,73.980003,74.809998,70.887337,2797266
2018-01-29,75.099998,75.470001,74.690002,74.889999,70.963142,3006415
2018-01-30,74.250000,74.699997,73.809998,74.050003,70.167191,3795387
2018-01-31,73.970001,74.360001,73.309998,73.730003,69.863976,3923635
2018-02-01,72.260002,74.129997,71.279999,72.139999,68.357338,7159132
2018-02-02,72.000000,72.180000,70.260002,71.169998,67.438202,5216434
2018-02-05,70.720001,71.589996,70.500000,70.699997,66.992844,4185229
2018-02-06,68.589996,70.559998,67.660004,69.449997,65.808388,8467594
2018-02-07,70.330002,71.180000,69.610001,70.650002,66.945473,5254476
2018-02-08,70.339996,71.089996,69.959999,70.330002,66.642250,5486222
2018-02-09,70.129997,70.849998,69.680000,70.129997,66.452736,7517673
2018-02-12,70.860001,71.559998,70.360001,70.970001,67.248688,4135182
2018-02-13,70.830002,70.989998,70.400002,70.620003,66.917046,2810173
2018-02-14,71.209999,72.220001,69.940002,71.610001,67.855133,5402091
2018-02-15,72.120003,72.529999,71.620003,71.930000,68.158356,4654355
2018-02-16,72.230003,72.699997,71.930000,72.500000,68.698463,4811254
2018-02-19,70.900002,71.480003,70.680000,71.010002,67.286591,4724547
2018-02-20,70.400002,70.709999,69.860001,70.620003,66.917046,3906694
2018-02-21,70.570000,70.610001,69.639999,70.339996,66.651718,3104198
2018-02-22,69.739998,70.209999,69.209999,70.040001,66.367455,3282784
2018-02-23,70.300003,70.809998,69.769997,70.410004,66.718056,4556874
2018-02-26,70.449997,70.639999,69.459999,70.230003,66.547493,5530562
2018-02-27,70.639999,70.980003,69.550003,70.370003,66.680153,4598451
2018-02-28,70.199997,70.959999,70.169998,70.470001,66.774910,3650903
2018-03-01,70.309998,70.470001,68.629997,69.019997,65.400932,5237830
2018-03-02,68.489998,68.550003,66.870003,67.349998,63.818504,5273614
2018-03-05,66.250000,67.370003,66.110001,67.309998,63.780598,4377965
2018-03-06,68.449997,68.660004,67.449997,67.570000,64.026970,3265807
2018-03-07,67.260002,68.320000,66.480003,67.849998,64.292282,3638450
2018-03-08,67.739998,67.959999,66.790001,67.879997,64.320709,3512444
2018-03-09,67.900002,68.370003,67.419998,67.919998,64.358612,2930709
2018-03-12,68.550003,68.570000,68.099998,68.320000,64.737640,1896084
2018-03-13,68.449997,68.970001,67.250000,67.709999,64.159630,3811799
2018-03-14,67.570000,68.059998,67.120003,67.500000,63.960640,3390347
2018-03-15,67.580002,68.349998,67.230003,68.239998,64.661835,4182067
2018-03-16,68.500000,69.500000,68.500000,69.169998,65.543068,14720067
2018-03-19,68.949997,69.260002,68.029999,68.529999,64.936630,3853809
2018-03-20,68.190002,68.839996,68.040001,68.680000,65.078766,2725232
2018-03-21,68.699997,68.699997,68.290001,68.629997,65.031387,2097715
2018-03-22,68.000000,68.419998,66.400002,67.029999,63.515282,5595064
2018-03-23,66.599998,66.750000,65.199997,65.769997,62.321346,5120907
2018-03-26,66.099998,66.949997,65.260002,65.529999,62.093933,3386090
2018-03-27,67.000000,67.370003,66.309998,66.470001,62.984650,4005786
2018-03-28,66.000000,66.389999,65.129997,66.300003,62.823563,4213944
2018-03-29,66.500000,69.250000,66.400002,68.970001,65.353561,8027224
2018-04-03,68.589996,69.050003,67.980003,68.559998,64.965057,4175871
2018-04-04,69.000000,69.000000,67.150002,68.110001,64.538651,4916389
2018-04-05,69.500000,69.769997,68.510002,69.610001,65.959999,6660123
2018-04-06,66.000000,66.349998,65.070000,65.330002,65.330002,5589308
2018-04-09,65.760002,65.849998,64.540001,64.949997,64.949997,3846835
2018-04-10,66.199997,66.489998,65.690002,65.739998,65.739998,4155912
2018-04-11,65.720001,65.849998,65.029999,65.250000,65.250000,2917855
2018-04-12,65.150002,65.550003,64.919998,65.470001,65.470001,2805601
2018-04-13,65.830002,66.339996,65.550003,65.650002,65.650002,2861373
2018-04-16,65.790001,65.949997,65.209999,65.309998,65.309998,2147726
2018-04-17,65.480003,66.250000,65.150002,66.000000,66.000000,2900792
2018-04-18,65.410004,65.760002,64.879997,65.230003,65.230003,4809237
2018-04-19,64.919998,65.239998,64.870003,65.199997,65.199997,2689318
2018-04-20,65.110001,65.300003,64.820000,65.120003,65.120003,3683584
2018-04-23,65.000000,65.570000,64.730003,65.349998,65.349998,2468009
2018-04-24,65.150002,65.330002,64.639999,65.160004,65.160004,3209019
2018-04-25,64.220001,65.019997,63.779999,65.010002,65.010002,4998118
2018-04-26,64.750000,65.559998,64.339996,65.029999,65.029999,3926346
2018-04-27,65.709999,65.959999,65.040001,65.639999,65.639999,3320107
2018-04-30,65.699997,65.980003,65.010002,65.500000,65.500000,2622353
2018-05-02,65.279999,66.949997,65.239998,66.550003,66.550003,4542531
2018-05-03,66.570000,66.830002,66.029999,66.330002,66.330002,2868004
2018-05-04,66.279999,66.480003,65.910004,66.480003,66.480003,2790006
2018-05-07,66.410004,67.040001,66.160004,66.830002,66.830002,2237735
2018-05-08,66.830002,67.019997,66.510002,67.019997,67.019997,2699198
2018-05-09,66.620003,67.279999,66.570000,67.099998,67.099998,2580098
2018-05-10,67.209999,67.440002,66.680000,67.190002,67.190002,1920146
2018-05-11,67.239998,67.239998,66.739998,67.050003,67.050003,2261964
2018-05-14,67.169998,67.169998,66.400002,66.839996,66.839996,2220115
2018-05-15,66.800003,67.199997,66.510002,66.900002,66.900002,2800242
2018-05-16,67.000000,67.160004,66.769997,66.870003,66.870003,1987168
2018-05-17,66.870003,67.800003,66.849998,67.800003,67.800003,3391587
2018-05-18,67.739998,68.160004,67.180000,67.400002,67.400002,4684456
2018-05-21,67.400002,67.400002,67.400002,67.400002,67.400002,0
2018-05-22,68.239998,68.639999,67.720001,68.379997,68.379997,3996449
2018-05-23,68.139999,68.400002,66.650002,67.080002,67.080002,4185751
2018-05-24,66.430000,66.489998,64.559998,65.220001,65.220001,6841903
2018-05-25,65.400002,65.580002,64.440002,65.070000,65.070000,4493390
2018-05-28,65.199997,65.410004,63.779999,64.220001,64.220001,3163033
2018-05-29,63.750000,63.750000,62.349998,63.189999,63.189999,5613837
2018-05-30,63.009998,63.099998,62.259998,62.869999,62.869999,4627128
2018-05-31,62.500000,62.610001,61.310001,61.680000,61.680000,9912215
2018-06-01,62.029999,62.529999,61.669998,62.029999,62.029999,4694942
2018-06-04,62.450001,62.660000,61.970001,62.160000,62.160000,2243339
2018-06-05,62.099998,63.040001,62.090000,62.200001,62.200001,3235212
2018-06-06,62.130001,62.490002,61.669998,62.349998,62.349998,3790258
2018-06-07,62.500000,63.060001,62.130001,62.369999,62.369999,2845138
2018-06-08,61.900002,62.040001,61.259998,61.959999,61.959999,3563648
2018-06-11,60.900002,61.419998,60.459999,61.419998,61.419998,5177768
2018-06-12,62.099998,62.570000,61.880001,62.310001,62.310001,5396143
2018-06-13,62.410000,62.490002,61.520000,61.730000,61.730000,3353213
2018-06-14,61.200001,63.430000,61.119999,63.189999,63.189999,5353335
2018-06-15,63.270000,63.630001,62.090000,62.320000,62.320000,19826443
2018-06-18,61.939999,62.189999,61.139999,61.730000,61.730000,3186041
2018-06-19,60.820000,61.139999,60.330002,60.900002,60.900002,3516204
2018-06-20,61.119999,61.389999,60.369999,60.450001,60.450001,4648994
2018-06-21,58.799999,59.000000,57.549999,57.840000,57.840000,12572354
2018-06-22,57.730000,57.849998,56.860001,57.660000,57.660000,5853207
2018-06-25,57.200001,57.250000,56.070000,56.070000,56.070000,5465282
2018-06-26,56.500000,56.930000,55.270000,55.630001,55.630001,5249924
2018-06-27,55.549999,56.639999,54.900002,55.630001,55.630001,6331022
2018-06-28,55.500000,56.180000,54.790001,55.230000,55.230000,4907462
2018-06-29,55.889999,55.930000,54.980000,55.130001,55.130001,4183949
2018-07-02,54.950001,56.410000,54.779999,55.580002,55.580002,6031725
2018-07-03,55.860001,56.669998,55.580002,56.070000,56.070000,4520172
2018-07-04,56.119999,56.639999,56.000000,56.380001,56.380001,2866553
2018-07-05,58.000000,59.160000,57.840000,58.500000,58.500000,6350523
2018-07-06,59.070000,59.070000,57.639999,58.040001,58.040001,4409486
2018-07-09,58.439999,58.450001,57.540001,58.099998,58.099998,2621722
2018-07-10,58.200001,58.490002,57.830002,58.349998,58.349998,2317361
2018-07-11,57.840000,57.919998,57.099998,57.180000,57.180000,3634792
2018-07-12,57.650002,57.650002,56.689999,57.160000,57.160000,2855572
2018-07-13,57.410000,57.669998,57.150002,57.250000,57.250000,2298258
2018-07-16,57.180000,57.459999,56.820000,57.080002,57.080002,2364663
2018-07-17,56.980000,57.790001,56.950001,57.480000,57.480000,2862884
2018-07-18,58.230000,58.630001,58.020000,58.259998,58.259998,3292650
2018-07-19,58.299999,58.830002,58.259998,58.639999,58.639999,2948865
2018-07-20,58.610001,58.610001,56.849998,57.259998,57.259998,5398382
2018-07-23,57.090000,57.740002,56.759998,57.740002,57.740002,2341470
2018-07-24,58.119999,59.720001,58.029999,59.169998,59.169998,4640428
2018-07-25,58.980000,59.070000,57.310001,57.880001,57.880001,4128731
2018-07-26,58.500000,59.750000,57.090000,59.509998,59.509998,6761972
2018-07-27,59.419998,59.930000,58.889999,59.290001,59.290001,3650970
2018-07-30,59.150002,59.619999,59.009998,59.349998,59.349998,1913581
2018-07-31,59.200001,59.680000,58.820000,59.150002,59.150002,3825862
2018-08-01,59.400002,59.410000,58.060001,58.240002,58.240002,4045856
2018-08-02,57.840000,57.919998,56.759998,57.410000,57.410000,3830268
2018-08-03,57.580002,58.529999,57.389999,58.160000,58.160000,2395590
2018-08-06,58.389999,58.990002,58.090000,58.250000,58.250000,2263625
2018-08-07,58.459999,59.400002,58.459999,58.889999,58.889999,2814065
2018-08-08,58.810001,59.270000,58.590000,59.060001,59.060001,1794580
2018-08-09,58.910000,59.380001,58.639999,59.040001,59.040001,2066612
2018-08-10,58.700001,58.700001,56.970001,57.200001,57.200001,4484731
2018-08-13,57.400002,57.860001,57.230000,57.230000,57.230000,2508866
2018-08-14,57.419998,57.619999,56.060001,56.450001,56.450001,3192461
2018-08-15,56.619999,56.919998,54.750000,55.049999,55.049999,5133679
2018-08-16,55.570000,55.720001,55.049999,55.290001,55.290001,2770577
2018-08-17,55.299999,55.459999,54.220001,54.919998,54.919998,3762564
2018-08-20,55.150002,55.590000,54.919998,55.290001,55.290001,1958014
2018-08-21,55.160000,55.990002,54.759998,55.869999,55.869999,2945241
2018-08-22,55.759998,56.369999,54.360001,55.299999,55.299999,4283446
2018-08-23,55.110001,55.290001,54.349998,54.410000,54.410000,2746752
2018-08-24,54.599998,55.000000,54.349998,54.750000,54.750000,2017459
2018-08-27,55.060001,56.209999,55.000000,56.110001,56.110001,2587137
2018-08-28,56.560001,56.980000,56.299999,56.299999,56.299999,2667177
2018-08-29,56.450001,56.730000,56.009998,56.669998,56.669998,1914798
2018-08-30,56.540001,57.330002,55.689999,56.650002,56.650002,3228762
2018-08-31,55.860001,56.270000,55.630001,55.700001,55.700001,3345369
2018-09-03,55.599998,55.650002,54.750000,55.000000,55.000000,2435014
2018-09-04,55.180000,55.209999,53.860001,54.200001,54.200001,3353876
2018-09-05,53.930000,54.660000,53.520000,54.279999,54.279999,3907174
2018-09-06,54.320000,55.090000,54.169998,54.320000,54.320000,2738082
2018-09-07,54.320000,54.500000,54.099998,54.480000,54.480000,2590854
2018-09-10,54.490002,54.680000,54.000000,54.500000,54.500000,2496864
2018-09-11,54.810001,54.849998,53.750000,54.049999,54.049999,2818817
2018-09-12,54.110001,54.540001,53.669998,54.529999,54.529999,2430843
2018-09-13,54.549999,55.610001,54.520000,55.090000,55.090000,3524228
2018-09-14,55.369999,56.139999,55.160000,55.540001,55.540001,3500191
2018-09-17,55.060001,55.849998,54.959999,55.410000,55.410000,2643977
2018-09-18,55.520000,56.470001,55.320000,55.770000,55.770000,4318441
2018-09-19,55.799999,56.470001,55.799999,56.320000,56.320000,2995247
2018-09-20,56.139999,57.560001,56.119999,57.209999,57.209999,4286869
2018-09-21,58.000000,58.810001,57.360001,57.610001,57.610001,9215794
2018-09-24,57.490002,57.490002,56.049999,56.130001,56.130001,3956861
2018-09-25,56.160000,56.380001,54.220001,54.740002,54.740002,6202208
2018-09-26,54.820000,54.939999,53.450001,54.830002,54.830002,5032525
2018-09-27,55.099998,55.610001,54.320000,55.590000,55.590000,3884896
2018-09-28,55.320000,55.360001,54.119999,54.349998,54.349998,4371302
2018-10-01,54.459999,55.130001,53.919998,54.880001,54.880001,2518242
2018-10-02,54.590000,56.430000,54.549999,56.000000,56.000000,4957695
2018-10-04,56.799999,57.090000,56.080002,56.439999,56.439999,4299941
2018-10-05,56.330002,56.400002,55.369999,55.610001,55.610001,2978584
2018-10-08,55.180000,55.330002,54.540001,54.599998,54.599998,2952837
2018-10-09,54.570000,54.720001,53.630001,54.419998,54.419998,3096328
2018-10-10,54.500000,54.639999,53.520000,53.599998,53.599998,4153982
2018-10-11,52.669998,53.389999,52.119999,52.700001,52.700001,5467425
2018-10-12,53.200001,53.840000,52.750000,52.889999,52.889999,3355733
2018-10-15,52.529999,53.209999,52.029999,52.919998,52.919998,3149634
2018-10-16,52.849998,53.540001,52.330002,53.230000,53.230000,3803154
2018-10-17,53.639999,53.639999,52.279999,52.759998,52.759998,3299834
2018-10-18,52.919998,53.520000,52.369999,52.410000,52.410000,2535328
2018-10-19,52.380001,52.480000,48.770000,51.389999,51.389999,9510534
2018-10-22,51.549999,52.619999,50.810001,50.810001,50.810001,4344803
2018-10-23,50.139999,50.860001,49.720001,50.480000,50.480000,5512675
2018-10-24,51.500000,51.529999,49.840000,50.000000,50.000000,4916089
2018-10-25,49.799999,51.770000,49.799999,51.349998,51.349998,5808298
2018-10-26,50.880001,51.369999,50.340000,51.369999,51.369999,4411562
2018-10-29,51.400002,54.529999,51.369999,52.430000,52.430000,6301314
2018-10-30,52.680000,52.990002,51.790001,52.119999,52.119999,4227309
2018-10-31,52.900002,53.000000,52.060001,52.360001,52.360001,4293941
2018-11-01,52.230000,53.209999,51.910000,52.570000,52.570000,2893154
2018-11-02,54.130001,54.820000,53.070000,53.139999,53.139999,5303977
2018-11-05,53.299999,53.360001,52.669998,52.689999,52.689999,2574153
2018-11-06,52.849998,52.939999,52.150002,52.270000,52.270000,2582822
2018-11-07,52.270000,52.939999,52.000000,52.299999,52.299999,3339733
2018-11-08,52.349998,52.439999,51.189999,51.299999,51.299999,4393933
2018-11-09,51.000000,51.200001,50.259998,50.759998,50.759998,3296172
2018-11-12,51.090000,51.369999,50.220001,50.410000,50.410000,3402425
2018-11-13,50.380001,52.099998,50.360001,51.889999,51.889999,4620464
2018-11-14,51.980000,53.430000,51.820000,52.290001,52.290001,4387665
2018-11-15,51.509998,51.779999,50.419998,51.060001,51.060001,5054950
2018-11-16,51.599998,52.020000,50.290001,50.490002,50.490002,4894118
2018-11-19,50.680000,51.009998,50.240002,50.450001,50.450001,4459905
2018-11-20,50.380001,50.619999,49.615002,49.779999,49.779999,4855762
2018-11-21,50.160000,50.950001,49.900002,50.840000,50.840000,3086971
2018-11-22,50.770000,50.770000,49.990002,50.419998,50.419998,1830471
2018-11-23,50.349998,50.840000,50.299999,50.669998,50.669998,2003899
2018-11-26,50.990002,52.200001,50.889999,51.939999,51.939999,3486213
2018-11-27,52.099998,52.099998,50.380001,50.689999,50.689999,3683800
2018-11-28,50.990002,51.110001,50.320000,50.619999,50.619999,3085454
2018-11-29,50.820000,51.080002,50.130001,50.669998,50.669998,3671092
2018-11-30,50.470001,50.540001,48.755001,49.695000,49.695000,7341792
2018-12-03,52.200001,53.490002,51.660000,51.950001,51.950001,7672749
2018-12-04,51.450001,51.580002,50.450001,50.450001,50.450001,3694750
2018-12-05,50.299999,50.830002,49.915001,50.000000,50.000000,2849571
2018-12-06,49.180000,49.369999,46.855000,46.910000,46.910000,9336923
2018-12-07,47.775002,48.000000,46.555000,46.735001,46.735001,5070020
2018-12-10,46.400002,46.400002,45.070000,45.470001,45.470001,6201896
2018-12-11,45.970001,47.250000,45.564999,46.695000,46.695000,6932469
2018-12-12,46.974998,47.639999,46.660000,47.419998,47.419998,4905711
2018-12-13,47.689999,48.259998,47.389999,47.540001,47.540001,3700736
2018-12-14,47.000000,47.794998,46.200001,47.369999,47.369999,5130806
2018-12-17,47.549999,48.200001,46.935001,47.419998,47.419998,3605325
2018-12-18,47.224998,48.430000,47.014999,47.099998,47.099998,4628468
2018-12-19,47.185001,47.794998,47.139999,47.224998,47.224998,4194112
2018-12-20,46.845001,47.145000,46.220001,46.514999,46.514999,4755405
2018-12-21,46.200001,47.584999,45.775002,46.814999,46.814999,11141282
2018-12-27,46.955002,47.075001,44.810001,45.270000,45.270000,5133587
2018-12-28,45.535000,46.145000,45.505001,45.910000,45.910000,2348180
