Date,Open,High,Low,Close,Adj Close,Volume
2016-01-04,17.834999,17.834999,17.410000,17.565001,17.174334,2535091
2016-01-05,17.730000,17.855000,17.360001,17.719999,17.325886,1842440
2016-01-06,17.665001,17.665001,17.045000,17.370001,16.983669,2056390
2016-01-07,16.850000,16.915001,16.469999,16.750000,16.377460,2955234
2016-01-08,16.850000,17.105000,16.365000,16.365000,16.001022,2472544
2016-01-11,16.295000,16.719999,16.180000,16.180000,15.820139,1895610
2016-01-12,16.155001,16.415001,15.955000,16.090000,15.732140,3346019
2016-01-13,16.280001,16.469999,15.870000,15.940000,15.585475,2309971
2016-01-14,15.845000,16.030001,15.295000,15.880000,15.526810,4751478
2016-01-15,15.810000,15.970000,15.115000,15.240000,14.901043,3522932
2016-01-18,15.255000,15.525000,15.030000,15.110000,14.773935,2631221
2016-01-19,15.485000,15.730000,15.125000,15.185000,14.847268,3085627
2016-01-20,14.900000,14.965000,14.585000,14.660000,14.333943,3355098
2016-01-21,14.645000,15.145000,14.455000,15.130000,14.793490,3168878
2016-01-22,15.435000,15.440000,14.935000,15.020000,14.685938,3720157
2016-01-25,15.200000,15.220000,14.845000,14.970000,14.637050,2545697
2016-01-26,14.735000,15.385000,14.495000,15.350000,15.008597,2513468
2016-01-27,15.315000,15.400000,14.825000,15.025000,14.690826,2874746
2016-01-28,14.870000,15.105000,14.570000,14.710000,14.382833,4160624
2016-01-29,14.945000,15.015000,14.125000,14.235000,13.918397,5715185
2016-02-01,14.180000,14.220000,13.855000,14.205000,14.036977,3855972
2016-02-02,14.170000,14.190000,13.220000,13.350000,13.192090,4476310
2016-02-03,13.290000,13.740000,13.025000,13.465000,13.305731,5012509
2016-02-04,13.735000,14.365000,13.470000,14.165000,13.997450,6307071
2016-02-05,14.000000,14.260000,13.690000,13.955000,13.789933,5213984
2016-02-08,14.080000,14.200000,13.225000,13.320000,13.162444,4046181
2016-02-09,13.335000,13.415000,12.590000,12.840000,12.688123,5054368
2016-02-10,12.920000,13.510000,12.825000,13.215000,13.058687,4093561
2016-02-11,13.045000,13.170000,12.560000,12.900000,12.747413,3353958
2016-02-12,13.000000,14.020000,12.775000,14.020000,13.854166,6573135
2016-02-15,14.200000,14.270000,13.760000,14.005000,13.839342,4896417
2016-02-16,14.085000,14.205000,13.435000,13.570000,13.409488,3993688
2016-02-17,14.010000,14.925000,13.950000,14.825000,14.649643,6043842
2016-02-18,14.965000,15.050000,14.355000,14.805000,14.629880,4617220
2016-02-19,14.820000,15.070000,14.640000,14.840000,14.664466,3324865
2016-02-22,15.030000,15.615000,15.030000,15.555000,15.371008,3612759
2016-02-23,15.400000,15.465000,14.885000,14.950000,14.773164,2802863
2016-02-24,14.950000,15.095000,14.400000,14.490000,14.318605,2908508
2016-02-25,14.740000,14.900000,14.425000,14.520000,14.348251,2359425
2016-02-26,14.715000,15.175000,14.650000,15.090000,14.911509,2341879
2016-02-29,14.940000,15.640000,14.865000,15.615000,15.430299,3095046
2016-03-01,15.600000,16.184999,15.555000,16.150000,15.958971,3289688
2016-03-02,16.250000,16.485001,16.014999,16.370001,16.176369,2505171
2016-03-03,16.385000,16.690001,16.344999,16.514999,16.319653,2530325
2016-03-04,16.549999,17.040001,16.410000,17.030001,16.828562,3365523
2016-03-07,16.895000,17.235001,16.580000,17.184999,16.981728,2540646
2016-03-08,17.000000,17.145000,16.440001,16.559999,16.364120,2441457
2016-03-09,16.480000,16.865000,16.344999,16.504999,16.309771,2303893
2016-03-10,16.530001,16.920000,16.120001,16.120001,15.929325,2999828
2016-03-11,16.430000,17.495001,16.389999,17.485001,17.278181,3929207
2016-03-14,17.620001,17.930000,17.264999,17.549999,17.342409,2666863
2016-03-15,17.440001,17.500000,17.135000,17.250000,17.045959,1639899
2016-03-16,17.285000,17.410000,17.090000,17.275000,17.070663,1480940
2016-03-17,17.469999,17.684999,17.145000,17.485001,17.278181,2606589
2016-03-18,17.504999,17.780001,17.264999,17.530001,17.322649,3644421
2016-03-21,17.389999,17.650000,17.170000,17.209999,17.006432,1869465
2016-03-22,17.160000,17.290001,16.865000,17.290001,17.085487,1274107
2016-03-23,17.465000,17.525000,17.080000,17.225000,17.021255,1659470
2016-03-24,17.105000,17.105000,16.514999,16.889999,16.690218,2277928
2016-03-29,17.004999,17.270000,16.690001,16.805000,16.606222,1378469
2016-03-30,16.940001,18.385000,16.940001,18.195000,17.979782,4580064
2016-03-31,18.084999,18.475000,17.860001,18.260000,18.044012,2766586
2016-04-01,18.855000,19.750000,18.855000,19.160000,18.933367,6261992
2016-04-04,19.135000,19.240000,18.434999,19.045000,18.819729,2779953
2016-04-05,18.600000,18.629999,17.924999,18.160000,17.945196,2772845
2016-04-06,18.275000,18.719999,18.125000,18.510000,18.291054,2916324
2016-04-07,18.525000,18.610001,17.950001,18.014999,17.801908,2189419
2016-04-08,18.004999,18.809999,17.985001,18.660000,18.439281,2186837
2016-04-11,18.590000,19.240000,18.455000,19.135000,18.908663,2062181
2016-04-12,19.170000,19.475000,19.025000,19.360001,19.131001,2493645
2016-04-13,19.725000,20.725000,19.725000,20.535000,20.292101,4835530
2016-04-14,20.555000,20.799999,20.129999,20.395000,20.153761,2711542
2016-04-15,20.490000,20.754999,20.360001,20.504999,20.262457,3318865
2016-04-18,20.160000,20.840000,19.855000,20.764999,20.519382,2072704
2016-04-19,20.850000,21.420000,20.834999,21.420000,21.166634,3112155
2016-04-20,21.264999,21.735001,21.075001,21.725000,21.468027,2979976
2016-04-21,21.775000,21.924999,20.965000,21.250000,20.998646,3078487
2016-04-22,21.129999,21.684999,20.980000,21.684999,21.428499,2364777
2016-04-25,21.600000,21.635000,20.635000,20.830000,20.583614,2804625
2016-04-26,19.920000,20.535000,19.760000,20.320000,20.079645,3822413
2016-04-27,20.264999,20.500000,20.055000,20.315001,20.074705,2001604
2016-04-28,20.000000,21.084999,19.940001,20.969999,20.721956,2986129
2016-04-29,20.795000,20.855000,20.309999,20.309999,20.069763,1954602
2016-05-02,20.219999,20.495001,20.084999,20.385000,20.143877,1262375
2016-05-03,20.320000,20.360001,19.170000,19.434999,19.205112,2863922
2016-05-04,19.400000,19.785000,19.315001,19.379999,19.150764,2143696
2016-05-05,19.440001,19.570000,19.075001,19.230000,19.002539,2065604
2016-05-06,19.145000,19.580000,18.844999,19.389999,19.160645,2769496
2016-05-09,19.559999,19.559999,18.270000,18.360001,18.142830,3765660
2016-05-10,17.900000,18.565001,17.315001,18.455000,18.236706,6365657
2016-05-11,18.730000,19.100000,18.375000,19.030001,18.804905,3575064
2016-05-12,18.995001,19.285000,18.540001,18.610001,18.389874,2129335
2016-05-13,18.415001,18.740000,18.299999,18.674999,18.454103,1975168
2016-05-17,18.834999,19.285000,18.605000,18.950001,18.725851,2553775
2016-05-18,18.799999,19.040001,18.629999,18.889999,18.666559,1470478
2016-05-19,18.750000,18.754999,17.905001,18.059999,17.846378,2881115
2016-05-20,18.309999,18.700001,18.309999,18.530001,18.310820,1710968
2016-05-23,18.590000,18.590000,18.049999,18.290001,18.073658,1588984
2016-05-24,18.225000,18.745001,18.180000,18.680000,18.459044,1922647
2016-05-25,18.930000,19.145000,18.730000,19.125000,18.898781,1808324
2016-05-26,19.165001,19.945000,19.165001,19.815001,19.580620,2421990
2016-05-27,19.840000,19.920000,19.465000,19.655001,19.422512,2169082
2016-05-30,19.650000,19.700001,19.450001,19.580000,19.348400,837360
2016-05-31,19.600000,20.010000,19.565001,19.785000,19.550974,2011728
2016-06-01,19.900000,19.950001,19.434999,19.594999,19.363220,2254370
2016-06-02,19.584999,19.910000,19.584999,19.719999,19.486744,1146412
2016-06-03,19.785000,20.235001,19.605000,19.754999,19.521330,1874469
2016-06-06,19.670000,19.945000,19.555000,19.639999,19.407688,1579582
2016-06-07,19.750000,20.219999,19.750000,20.000000,19.763430,1438218
2016-06-08,19.860001,19.965000,19.655001,19.840000,19.605324,1110788
2016-06-09,19.840000,19.889999,19.299999,19.485001,19.254524,1573094
2016-06-10,19.379999,19.379999,18.405001,18.405001,18.187298,2725473
2016-06-13,18.129999,18.250000,17.625000,17.760000,17.549927,2965257
2016-06-14,17.670000,17.815001,17.379999,17.400000,17.194183,2254976
2016-06-15,17.495001,17.934999,17.389999,17.735001,17.525223,2556531
2016-06-16,17.809999,18.285000,17.635000,17.860001,17.648745,3078586
2016-06-17,18.084999,18.535000,17.995001,18.504999,18.286114,3509002
2016-06-20,18.870001,19.040001,18.740000,19.040001,18.814787,1974202
2016-06-21,18.900000,19.090000,18.830000,18.865000,18.641855,1550770
2016-06-22,18.995001,19.139999,18.770000,18.930000,18.706087,1377703
2016-06-23,19.100000,19.920000,19.030001,19.889999,19.654732,2689132
2016-06-24,17.305000,18.700001,16.950001,17.424999,17.218889,7968501
2016-06-27,17.600000,17.735001,16.825001,17.000000,16.798916,3814186
2016-06-28,17.299999,17.695000,17.135000,17.540001,17.332529,3100724
2016-06-29,17.799999,18.080000,17.645000,17.910000,17.698153,2279126
2016-06-30,17.900000,18.105000,17.530001,18.010000,17.796968,2158824
2016-07-01,18.145000,19.270000,18.129999,19.014999,18.790081,2750672
2016-07-04,19.010000,19.174999,18.280001,18.299999,18.083540,2055784
2016-07-05,17.969999,17.969999,17.010000,17.090000,16.887852,4356162
2016-07-06,17.000000,17.215000,16.594999,16.920000,16.719864,2510915
2016-07-07,17.100000,17.424999,16.934999,16.995001,16.793976,2104898
2016-07-08,16.910000,18.129999,16.855000,18.094999,17.880964,2861452
2016-07-11,18.799999,19.389999,18.695000,19.260000,19.032185,3687711
2016-07-12,19.205000,19.750000,19.165001,19.690001,19.457098,3000738
2016-07-13,19.625000,20.080000,19.355000,19.355000,19.126059,3184959
2016-07-14,19.635000,19.950001,19.559999,19.790001,19.555914,1832667
2016-07-15,19.790001,19.834999,19.555000,19.735001,19.501566,1372359
2016-07-18,19.700001,19.969999,19.570000,19.785000,19.550974,1167347
2016-07-19,19.730000,19.730000,19.240000,19.370001,19.140884,1357942
2016-07-20,19.465000,19.665001,19.070000,19.650000,19.417572,1803152
2016-07-21,19.730000,19.895000,19.504999,19.610001,19.378044,1156496
2016-07-22,19.545000,19.674999,19.370001,19.504999,19.274284,957981
2016-07-25,19.549999,19.990000,19.400000,19.795000,19.560856,1187562
2016-07-26,19.809999,19.924999,19.495001,19.825001,19.590500,1591259
2016-07-27,19.930000,20.180000,19.895000,19.895000,19.659672,1491638
2016-07-28,19.879999,20.540001,19.834999,20.334999,20.094467,2356540
2016-07-29,20.490000,20.565001,20.350000,20.500000,20.257515,1555988
2016-08-01,20.620001,20.760000,20.105000,20.150000,19.911657,1758225
2016-08-02,20.139999,20.195000,19.475000,19.655001,19.422512,1374112
2016-08-03,19.680000,19.905001,19.430000,19.670000,19.437334,1156330
2016-08-04,19.865000,20.270000,19.770000,20.075001,19.837545,1258887
2016-08-05,20.165001,20.695000,20.135000,20.690001,20.445271,1517698
2016-08-08,20.799999,21.285000,20.750000,21.045000,20.796070,1838355
2016-08-09,21.000000,21.795000,20.959999,21.775000,21.517435,2483062
2016-08-10,21.580000,21.600000,21.049999,21.115000,20.865242,2395291
2016-08-11,20.500000,21.540001,20.299999,21.320000,21.067818,2699281
2016-08-12,21.320000,21.885000,21.320000,21.549999,21.295095,3099531
2016-08-15,21.610001,21.719999,21.295000,21.540001,21.285217,1601428
2016-08-16,21.350000,21.840000,21.280001,21.525000,21.270391,1508456
2016-08-17,21.500000,21.629999,20.934999,20.965000,20.717018,1508279
2016-08-18,21.209999,21.770000,21.150000,21.615000,21.359327,2352856
2016-08-19,21.670000,22.219999,21.410000,21.745001,21.487791,2804271
2016-08-22,21.690001,21.715000,21.065001,21.084999,20.835596,1836829
2016-08-23,21.174999,21.535000,21.139999,21.330000,21.077700,1291152
2016-08-24,21.250000,21.445000,20.950001,21.215000,20.964060,1150563
2016-08-25,21.139999,21.215000,20.840000,21.150000,20.899828,1399745
2016-08-26,21.110001,21.450001,20.975000,21.340000,21.087580,1127631
2016-08-29,21.129999,21.165001,20.870001,21.075001,20.825716,815592
2016-08-30,21.184999,21.385000,21.020000,21.049999,20.801010,1047544
2016-08-31,21.020000,21.195000,20.825001,20.895000,20.647846,1496229
2016-09-01,20.924999,21.410000,20.920000,21.145000,20.894888,1608821
2016-09-02,21.260000,21.680000,20.955000,21.635000,21.379091,1544389
2016-09-05,21.750000,22.065001,21.730000,21.900000,21.640957,1539717
2016-09-06,21.950001,22.174999,21.785000,21.834999,21.576725,1882401
2016-09-07,21.924999,22.395000,21.875000,22.264999,22.001638,1526638
2016-09-08,22.215000,22.350000,21.900000,22.010000,21.749657,2163327
2016-09-09,21.889999,21.924999,21.385000,21.450001,21.196280,1356935
2016-09-12,21.049999,21.080000,20.514999,20.775000,20.529263,2470377
2016-09-13,20.930000,20.945000,20.355000,20.395000,20.153761,1942952
2016-09-14,20.495001,20.764999,20.325001,20.434999,20.193285,1755318
2016-09-15,20.420000,20.705000,20.254999,20.615000,20.371157,2472418
2016-09-16,20.549999,20.565001,20.084999,20.285000,20.045059,4108973
2016-09-19,20.400000,20.920000,20.385000,20.825001,20.578674,1795753
2016-09-20,20.780001,20.895000,20.434999,20.469999,20.227871,1572994
2016-09-21,20.674999,20.785000,20.514999,20.665001,20.420567,1315925
2016-09-22,21.000000,21.465000,20.940001,21.245001,20.993704,2096311
2016-09-23,21.250000,21.305000,21.090000,21.135000,20.885006,1440674
2016-09-26,20.934999,21.080000,20.695000,21.080000,20.830656,2007339
2016-09-27,21.200001,21.250000,20.680000,20.830000,20.583614,1383196
2016-09-28,20.870001,21.350000,20.870001,21.100000,20.850420,1235394
2016-09-29,21.389999,21.709999,21.165001,21.264999,21.013468,1239948
2016-09-30,20.850000,21.270000,20.615000,21.219999,20.969000,2132264
2016-10-04,21.170000,21.629999,21.120001,21.445000,21.191338,2307761
2016-10-05,21.250000,21.730000,21.090000,21.594999,21.339563,1780400
2016-10-06,21.719999,21.750000,21.385000,21.430000,21.176517,1621452
2016-10-07,21.500000,22.025000,21.430000,21.825001,21.566845,2901589
2016-10-10,21.924999,22.570000,21.879999,22.440001,22.174570,2856022
2016-10-11,22.400000,22.670000,22.070000,22.145000,21.883060,2428858
2016-10-12,22.139999,22.375000,22.059999,22.235001,21.971994,1348772
2016-10-13,21.990000,21.990000,21.385000,21.480000,21.225924,2048128
2016-10-14,21.629999,22.125000,21.605000,21.924999,21.665661,1652383
2016-10-17,21.900000,22.059999,21.745001,21.850000,21.591549,1148172
2016-10-18,22.059999,22.315001,21.940001,22.059999,21.799063,1299606
2016-10-19,22.025000,22.235001,21.945000,22.100000,21.838593,1231396
2016-10-20,22.230000,22.290001,21.700001,21.995001,21.734835,2166207
2016-10-21,22.084999,22.445000,22.000000,22.315001,22.051050,1975131
2016-10-24,22.440001,22.990000,22.440001,22.620001,22.352440,1667182
2016-10-25,22.415001,22.680000,21.730000,21.910000,21.650839,3951271
2016-10-26,21.830000,21.844999,21.090000,21.350000,21.097462,2917197
2016-10-27,21.325001,21.700001,20.995001,21.459999,21.206161,2686365
2016-10-28,21.334999,21.410000,20.940001,21.000000,20.751604,3098844
2016-10-31,20.850000,21.250000,20.740000,21.090000,20.840538,2316202
2016-11-01,21.200001,21.254999,20.500000,20.504999,20.262457,2266637
2016-11-02,20.459999,20.469999,19.990000,20.344999,20.104349,2114276
2016-11-03,20.309999,20.309999,20.020000,20.049999,19.812840,1909962
2016-11-04,19.975000,19.975000,19.584999,19.770000,19.536152,2293898
2016-11-07,20.090000,20.285000,20.000000,20.285000,20.045059,2060799
2016-11-08,20.190001,20.410000,19.924999,20.410000,20.168581,2128230
2016-11-09,19.520000,21.254999,19.410000,21.254999,21.003586,4577611
2016-11-10,21.350000,21.940001,21.215000,21.344999,21.092520,3264896
2016-11-11,21.540001,21.639999,20.910000,21.120001,20.870184,2130879
2016-11-14,21.340000,21.930000,21.280001,21.735001,21.477909,2628671
2016-11-15,21.700001,21.775000,21.344999,21.680000,21.423559,1771811
2016-11-16,21.790001,21.950001,21.514999,21.549999,21.295095,1846635
2016-11-17,21.514999,21.549999,20.985001,21.205000,20.954176,2264385
2016-11-18,21.275000,21.605000,21.010000,21.174999,20.924532,2396964
2016-11-21,21.344999,21.385000,20.915001,21.174999,20.924532,1540116
2016-11-22,21.424999,21.870001,21.410000,21.770000,21.512495,2306316
2016-11-23,21.830000,22.270000,21.795000,21.950001,21.690365,3442068
2016-11-24,21.400000,22.295000,21.320000,21.930000,21.670603,4124001
2016-11-25,21.799999,21.799999,21.120001,21.295000,21.043114,3510388
2016-11-28,21.260000,21.260000,20.900000,20.990000,20.741720,1960992
2016-11-29,20.969999,21.280001,20.735001,21.049999,20.801010,1916405
2016-11-30,20.985001,21.570000,20.930000,21.420000,21.166634,2581739
2016-12-01,21.350000,21.510000,21.200001,21.330000,21.077700,2122843
2016-12-02,21.190001,21.360001,20.990000,21.280001,21.028290,1683154
2016-12-05,21.254999,22.025000,21.200001,21.934999,21.675543,2487069
2016-12-06,22.000000,22.190001,21.785000,22.035000,21.774361,2281217
2016-12-07,22.340000,23.615000,22.275000,23.500000,23.222031,5671940
2016-12-08,23.495001,24.334999,23.495001,24.200001,23.913754,4566520
2016-12-09,24.035000,24.299999,23.430000,23.510000,23.231913,3449915
2016-12-12,23.525000,23.770000,23.405001,23.495001,23.217091,2282629
2016-12-13,23.525000,23.700001,23.309999,23.440001,23.162741,1758337
2016-12-14,23.184999,23.520000,23.020000,23.400000,23.123213,2396827
2016-12-15,23.395000,23.750000,23.275000,23.540001,23.261559,2862777
2016-12-16,23.480000,23.760000,23.240000,23.264999,22.989809,4206710
2016-12-19,22.799999,23.084999,22.719999,23.020000,22.747709,2790832
2016-12-20,22.965000,23.184999,22.855000,23.174999,22.900875,2335471
2016-12-21,23.120001,23.365000,22.725000,23.065001,22.792177,1827670
2016-12-22,22.940001,22.980000,22.715000,22.865000,22.594542,1256873
2016-12-23,22.825001,22.900000,22.610001,22.730000,22.461138,1017705
2016-12-27,22.695000,22.844999,22.610001,22.610001,22.342560,671519
2016-12-28,22.629999,23.049999,22.610001,22.855000,22.584660,1127102
2016-12-29,22.750000,22.799999,22.570000,22.740000,22.471022,847002
2016-12-30,22.650000,22.799999,22.575001,22.639999,22.372204,799941
2017-01-02,22.600000,23.105000,22.520000,22.955000,22.683479,991270
2017-01-03,22.969999,23.145000,22.940001,23.020000,22.747709,2108177
2017-01-04,23.105000,23.145000,22.575001,22.665001,22.396908,1843087
2017-01-05,22.645000,22.934999,22.549999,22.750000,22.480904,1575940
2017-01-06,22.690001,22.719999,22.410000,22.625000,22.357380,1384033
2017-01-09,22.594999,22.735001,22.174999,22.490000,22.223978,1789242
2017-01-10,22.525000,22.940001,22.459999,22.924999,22.653831,2175676
2017-01-11,22.889999,23.820000,22.885000,23.684999,23.404842,3053121
2017-01-12,23.695000,24.110001,23.465000,23.485001,23.207211,2696396
2017-01-13,23.535000,23.830000,23.344999,23.830000,23.548128,1639718
2017-01-16,23.760000,24.035000,23.590000,23.950001,23.666710,1527511
2017-01-17,23.934999,23.995001,23.495001,23.900000,23.617298,1389109
2017-01-18,23.915001,24.004999,23.670000,24.004999,23.721056,2123827
2017-01-19,23.510000,23.865000,23.485001,23.615000,23.335670,2909802
2017-01-20,23.570000,24.040001,23.510000,24.000000,23.716118,2477602
2017-01-23,23.760000,23.969999,23.465000,23.719999,23.439428,2612106
2017-01-24,23.440001,23.950001,23.365000,23.950001,23.666710,2765124
2017-01-25,24.100000,24.615000,24.100000,24.264999,23.977983,3024940
2017-01-26,24.379999,24.490000,23.879999,23.950001,23.666710,2520543
2017-01-27,23.980000,24.430000,23.934999,24.350000,24.061977,2615601
2017-01-30,24.160000,24.290001,23.434999,23.469999,23.336140,2407589
2017-01-31,23.490000,23.754999,23.275000,23.350000,23.216825,2611617
2017-02-01,23.424999,24.090000,23.420000,23.625000,23.490255,1869968
2017-02-02,23.150000,23.530001,22.985001,23.334999,23.201910,2235012
2017-02-03,23.280001,23.504999,23.110001,23.240000,23.107452,1718685
2017-02-06,23.135000,23.514999,23.040001,23.075001,22.943394,1953801
2017-02-07,23.299999,23.565001,23.200001,23.459999,23.326197,2414256
2017-02-08,23.500000,23.780001,22.910000,23.254999,23.122366,2243449
2017-02-09,22.950001,23.469999,22.145000,23.049999,22.918535,4238612
2017-02-10,23.254999,23.709999,23.250000,23.610001,23.475342,3237958
2017-02-13,23.750000,23.920000,23.405001,23.584999,23.450483,2800219
2017-02-14,23.535000,23.540001,23.200001,23.350000,23.216825,1936486
2017-02-15,23.450001,23.545000,23.070000,23.459999,23.326197,1921054
2017-02-16,23.375000,23.389999,23.059999,23.145000,23.012995,1744598
2017-02-17,23.035000,23.155001,22.674999,22.895000,22.764420,2664072
2017-02-20,23.070000,23.200001,22.860001,22.924999,22.794249,1064991
2017-02-21,22.955000,23.285000,22.920000,23.170000,23.037851,1906730
2017-02-22,24.150000,24.645000,24.100000,24.240000,24.101748,6454674
2017-02-23,24.350000,24.690001,24.080000,24.254999,24.116661,3222852
2017-02-24,24.190001,24.350000,23.424999,23.900000,23.763687,3349736
2017-02-27,24.010000,24.135000,23.575001,23.745001,23.609573,2403180
2017-02-28,23.705000,23.740000,23.344999,23.594999,23.460426,2050196
2017-03-01,23.785000,24.035000,23.695000,23.924999,23.788544,1994217
2017-03-02,23.965000,24.100000,23.450001,23.514999,23.380882,1917068
2017-03-03,23.410000,23.650000,23.195000,23.610001,23.475342,2420940
2017-03-06,23.290001,23.295000,22.945000,23.170000,23.037851,2996366
2017-03-07,23.200001,23.260000,22.885000,22.955000,22.824078,1664978
2017-03-08,22.809999,23.049999,22.665001,22.719999,22.590418,1826297
2017-03-09,22.600000,22.725000,22.389999,22.580000,22.451216,2412928
2017-03-10,22.615000,23.004999,22.424999,22.555000,22.426359,2402079
2017-03-13,22.674999,23.115000,22.639999,23.075001,22.943394,2649227
2017-03-14,23.040001,23.120001,22.740000,22.934999,22.804192,2114327
2017-03-15,23.004999,23.379999,23.004999,23.315001,23.182024,2111090
2017-03-16,23.629999,23.934999,23.305000,23.415001,23.281454,2796648
2017-03-17,23.334999,23.799999,23.105000,23.680000,23.544943,3395782
2017-03-20,23.615000,23.650000,23.235001,23.400000,23.266539,1249564
2017-03-21,23.410000,23.490000,22.770000,22.820000,22.689846,2513884
2017-03-22,22.500000,22.674999,22.330000,22.575001,22.446245,2288038
2017-03-23,22.625000,22.825001,22.530001,22.764999,22.635160,2116520
2017-03-24,22.730000,22.969999,22.650000,22.684999,22.555616,1621121
2017-03-27,22.165001,22.545000,21.870001,22.350000,22.222528,2984489
2017-03-28,22.500000,22.709999,22.385000,22.684999,22.555616,2194439
2017-03-29,22.770000,22.965000,22.650000,22.745001,22.615276,1463455
2017-03-30,22.745001,23.010000,22.684999,22.945000,22.814135,1491524
2017-03-31,22.799999,22.975000,22.650000,22.959999,22.829048,2043149
2017-04-03,23.045000,23.254999,22.995001,23.200001,23.067680,2392650
2017-04-04,23.184999,23.395000,22.770000,22.945000,22.814135,2404590
2017-04-05,22.900000,23.084999,22.815001,22.834999,22.704762,2064990
2017-04-06,22.910000,22.965000,22.639999,22.725000,22.595390,2212236
2017-04-07,22.600000,22.650000,22.370001,22.549999,22.421387,2224169
2017-04-10,22.370001,22.915001,22.370001,22.645000,22.515846,1774020
2017-04-11,22.570000,22.740000,22.375000,22.459999,22.331900,2068551
2017-04-12,22.455000,22.530001,22.020000,22.035000,21.909325,2359418
2017-04-13,22.000000,22.094999,21.805000,21.879999,21.755207,1482238
2017-04-18,21.834999,21.834999,21.215000,21.275000,21.153658,2945556
2017-04-19,21.270000,21.900000,21.254999,21.844999,21.720407,2902164
2017-04-20,21.665001,21.735001,21.299999,21.469999,21.347546,2584021
2017-04-21,21.709999,21.860001,21.455000,21.465000,21.342575,2541343
2017-04-24,21.900000,22.180000,21.790001,22.170000,22.043554,2563062
2017-04-25,22.250000,22.764999,21.934999,22.764999,22.635160,3364380
2017-04-26,22.709999,22.725000,22.420000,22.600000,22.471102,2159808
2017-04-27,22.480000,22.500000,21.674999,21.674999,21.551376,2907746
2017-04-28,21.705000,21.980000,21.684999,21.855000,21.730350,2450511
2017-05-02,21.840000,22.145000,21.565001,22.145000,22.018698,2489476
2017-05-03,22.080000,22.125000,21.770000,21.980000,21.854637,1378625
2017-05-04,21.934999,22.100000,21.555000,22.070000,21.944124,2305027
2017-05-05,21.955000,22.535000,21.889999,22.514999,22.386587,2303149
2017-05-08,22.575001,22.584999,22.010000,22.180000,22.053497,2428285
2017-05-09,22.260000,22.635000,22.200001,22.445000,22.316986,1700426
2017-05-10,22.360001,22.485001,22.245001,22.445000,22.316986,1492396
2017-05-11,22.440001,22.580000,22.070000,22.264999,22.138012,2407620
2017-05-12,21.155001,22.080000,21.049999,21.360001,21.238174,6294623
2017-05-15,21.575001,21.629999,21.264999,21.600000,21.476807,2339572
2017-05-16,21.650000,22.525000,21.455000,22.490000,22.361729,5416078
2017-05-17,22.445000,23.580000,22.350000,23.174999,23.042822,7702457
2017-05-18,23.205000,23.219999,22.629999,23.020000,22.888706,3513571
2017-05-19,23.100000,23.325001,22.924999,23.090000,22.958307,3352603
2017-05-22,23.170000,23.264999,22.934999,22.934999,22.804192,1609359
2017-05-23,22.900000,23.525000,22.895000,23.525000,23.390825,2801159
2017-05-24,23.440001,23.650000,23.320000,23.420000,23.286425,1674501
2017-05-25,23.549999,24.350000,23.360001,23.959999,23.823345,2638580
2017-05-26,23.959999,24.080000,23.645000,24.035000,23.897917,2134082
2017-05-29,24.080000,24.155001,23.930000,24.150000,24.012260,924738
2017-05-30,24.084999,24.270000,23.815001,23.965000,23.828318,1514485
2017-05-31,23.889999,23.905001,23.514999,23.610001,23.475342,2423511
2017-06-01,23.504999,23.655001,23.165001,23.270000,23.137281,2667821
2017-06-02,23.350000,23.600000,23.264999,23.510000,23.375912,1734155
2017-06-05,23.510000,23.510000,23.510000,23.510000,23.375912,0
2017-06-06,23.455000,23.480000,23.030001,23.030001,22.898651,1939038
2017-06-07,23.020000,23.150000,22.815001,22.955000,22.824078,1739874
2017-06-08,23.219999,23.805000,23.170000,23.790001,23.654316,3006333
2017-06-09,23.834999,24.365000,23.809999,24.270000,24.131578,2726788
2017-06-12,24.230000,24.344999,23.760000,23.950001,23.813404,1958604
2017-06-13,23.975000,24.309999,23.875000,24.135000,23.997347,2038916
2017-06-14,24.139999,24.389999,23.815001,23.870001,23.733860,2032548
2017-06-15,23.850000,23.889999,23.254999,23.315001,23.182024,2530391
2017-06-16,23.400000,23.620001,23.340000,23.549999,23.415684,3686630
2017-06-19,23.700001,24.350000,23.700001,24.145000,24.007290,2537376
2017-06-20,24.225000,24.245001,23.695000,23.695000,23.559856,1881824
2017-06-21,23.705000,24.325001,23.434999,24.195000,24.057005,2200829
2017-06-22,24.150000,25.299999,24.129999,25.299999,25.155703,5877598
2017-06-23,25.290001,25.455000,25.014999,25.330000,25.185532,2290338
2017-06-26,25.400000,25.775000,25.400000,25.625000,25.478849,2781614
2017-06-27,25.735001,25.934999,25.365000,25.410000,25.265076,3211589
2017-06-28,25.235001,25.754999,24.965000,25.690001,25.543478,2162280
2017-06-29,25.920000,26.040001,24.775000,24.910000,24.767927,3209905
2017-06-30,25.000000,25.065001,24.540001,24.875000,24.733128,2087793
2017-07-03,25.360001,26.110001,25.290001,26.100000,25.951139,2723098
2017-07-04,25.975000,26.145000,25.754999,26.080000,25.931253,1541111
2017-07-05,26.180000,26.799999,26.084999,26.290001,26.140057,3321039
2017-07-06,26.450001,26.620001,25.990000,26.129999,25.980968,2203997
2017-07-07,26.115000,26.135000,25.725000,25.920000,25.772167,2282000
2017-07-10,26.245001,26.280001,25.825001,26.150000,26.000854,1752746
2017-07-11,26.264999,27.049999,26.209999,26.469999,26.319029,3973135
2017-07-12,26.615000,26.760000,26.280001,26.730000,26.577547,3954709
2017-07-13,26.780001,27.014999,26.375000,26.825001,26.672007,2389374
2017-07-14,26.900000,26.959999,26.545000,26.565001,26.413488,2415873
2017-07-17,26.615000,26.844999,26.445000,26.740000,26.587490,1772520
2017-07-18,26.584999,26.850000,26.055000,26.410000,26.259371,2602382
2017-07-19,26.500000,26.680000,26.129999,26.270000,26.120171,1826197
2017-07-20,26.490000,27.070000,25.945000,26.004999,25.856682,3765088
2017-07-21,26.000000,26.340000,25.594999,25.655001,25.508678,3268916
2017-07-24,25.705000,25.900000,25.514999,25.625000,25.478849,1512276
2017-07-25,25.760000,25.915001,25.625000,25.825001,25.677710,1906620
2017-07-26,26.120001,26.170000,25.680000,25.985001,25.836796,2076514
2017-07-27,26.020000,26.275000,25.830000,25.900000,25.752281,1641704
2017-07-28,25.719999,25.750000,25.295000,25.415001,25.270048,1858401
2017-07-31,25.500000,25.725000,25.040001,25.084999,24.941929,2118261
2017-08-01,25.059999,25.645000,24.889999,25.549999,25.404276,2467395
2017-08-02,25.655001,26.309999,24.445000,24.620001,24.479582,4861495
2017-08-03,24.575001,24.940001,24.340000,24.934999,24.792784,2653676
2017-08-04,24.855000,25.469999,24.715000,25.405001,25.260105,2020402
2017-08-07,25.549999,25.745001,25.410000,25.725000,25.578279,1579460
2017-08-08,25.645000,25.965000,25.580000,25.850000,25.702566,1555368
2017-08-09,25.629999,26.014999,25.320000,25.559999,25.414219,2546753
2017-08-10,25.799999,26.750000,25.315001,25.770000,25.623022,4039048
2017-08-11,25.605000,25.980000,25.080000,25.700001,25.553423,2857779
2017-08-14,25.934999,26.370001,25.930000,26.250000,26.100285,2287006
2017-08-15,26.370001,26.660000,26.059999,26.059999,25.911367,2118129
2017-08-16,26.230000,26.514999,26.230000,26.320000,26.169886,1646586
2017-08-17,26.389999,26.459999,25.985001,26.110001,25.961084,1362736
2017-08-18,25.975000,26.094999,25.620001,26.094999,25.946167,1722909
2017-08-21,26.014999,26.045000,25.264999,25.264999,25.120901,2809334
2017-08-22,25.559999,25.700001,25.094999,25.395000,25.250162,2356213
2017-08-23,25.400000,25.485001,24.990000,25.100000,24.956844,1865458
2017-08-24,25.000000,25.174999,24.754999,25.045000,24.902157,2509180
2017-08-25,25.105000,25.625000,25.100000,25.184999,25.041359,2263605
2017-08-28,25.090000,25.299999,24.934999,25.254999,25.110958,719761
2017-08-29,25.100000,25.100000,24.290001,24.475000,24.335409,3381416
2017-08-30,24.684999,24.889999,24.540001,24.715000,24.574039,1426779
2017-08-31,24.820000,25.219999,24.785000,25.190001,25.046331,2642255
2017-09-01,25.520000,25.580000,25.309999,25.395000,25.250162,1902293
2017-09-04,25.160000,25.355000,25.035000,25.055000,24.912100,1173538
2017-09-05,25.025000,25.280001,25.025000,25.150000,25.006557,1361391
2017-09-06,24.955000,25.375000,24.830000,25.065001,24.922043,1430093
2017-09-07,25.129999,25.650000,24.969999,25.565001,25.419191,2095725
2017-09-08,25.465000,26.120001,25.389999,26.020000,25.871597,2377001
2017-09-11,26.240000,26.900000,26.190001,26.379999,26.229542,4412400
2017-09-12,26.600000,26.775000,26.465000,26.700001,26.547718,2329403
2017-09-13,26.715000,26.735001,26.270000,26.295000,26.145027,1888698
2017-09-14,26.174999,26.260000,25.975000,26.065001,25.916340,2184505
2017-09-15,26.055000,26.170000,25.850000,25.850000,25.702566,3649784
2017-09-18,26.139999,26.260000,25.639999,25.660000,25.513649,1811511
2017-09-19,25.754999,25.754999,25.245001,25.245001,25.101017,2234019
2017-09-20,26.299999,26.580000,25.750000,25.855000,25.707537,6328281
2017-09-21,25.900000,26.000000,24.920000,24.969999,24.827583,4226235
2017-09-22,24.844999,25.020000,24.559999,25.020000,24.877300,3179066
2017-09-25,24.924999,25.084999,24.645000,24.700001,24.559126,2049007
2017-09-26,24.250000,24.990000,24.180000,24.725000,24.583982,9063093
2017-09-27,24.840000,24.940001,24.620001,24.905001,24.762957,2882396
2017-09-28,25.000000,25.405001,24.879999,25.209999,25.066216,4255504
2017-09-29,25.290001,25.415001,24.760000,25.075001,24.931986,8550032
2017-10-02,25.160000,25.260000,24.469999,24.700001,24.559126,3891492
2017-10-03,24.700001,24.700001,24.700001,24.700001,24.559126,0
2017-10-04,24.680000,24.684999,23.830000,24.100000,23.962547,6231756
2017-10-05,24.125000,24.195000,23.834999,24.055000,23.917805,3835642
2017-10-06,24.040001,24.129999,23.350000,23.365000,23.231739,6071848
2017-10-09,23.469999,23.555000,22.955000,23.014999,22.883734,4176588
2017-10-10,22.875000,23.209999,22.645000,23.139999,23.008022,5529569
2017-10-11,23.275000,23.605000,23.040001,23.605000,23.470369,4855911
2017-10-12,23.645000,23.825001,23.440001,23.650000,23.515114,4021215
2017-10-13,23.350000,24.010000,23.254999,23.745001,23.609573,4511139
2017-10-16,23.969999,24.040001,23.610001,23.815001,23.679173,2756979
2017-10-17,23.750000,23.900000,23.485001,23.485001,23.351055,2859601
2017-10-18,23.500000,23.790001,23.355000,23.565001,23.430599,2550748
2017-10-19,23.500000,23.670000,23.070000,23.424999,23.291395,3035533
2017-10-20,23.629999,23.700001,23.295000,23.344999,23.211853,3152985
2017-10-23,23.469999,23.690001,23.309999,23.495001,23.360998,2308069
2017-10-24,23.450001,23.735001,23.450001,23.500000,23.365969,1919646
2017-10-25,23.495001,23.535000,22.905001,22.985001,22.853907,2675007
2017-10-26,23.000000,23.170000,22.885000,23.004999,22.873791,2053411
2017-10-27,23.010000,23.240000,22.684999,23.065001,22.933451,4382953
2017-10-30,23.065001,23.139999,22.905001,22.905001,22.774363,2167141
2017-10-31,22.905001,22.905001,22.905001,22.905001,22.774363,0
2017-11-01,23.105000,23.565001,23.014999,23.475000,23.341112,3999174
2017-11-02,23.400000,23.530001,23.290001,23.440001,23.306313,1795309
2017-11-03,23.535000,23.620001,23.245001,23.350000,23.216825,1796962
2017-11-06,23.385000,23.740000,23.385000,23.389999,23.256596,1730952
2017-11-07,23.559999,23.610001,23.320000,23.320000,23.186995,2380694
2017-11-08,23.385000,23.480000,23.120001,23.285000,23.152195,1644702
2017-11-09,23.285000,23.355000,22.600000,22.684999,22.555616,3483166
2017-11-10,22.750000,22.885000,22.434999,22.525000,22.396530,2196795
2017-11-13,22.610001,22.650000,21.754999,21.924999,21.799952,4881129
2017-11-14,22.010000,22.174999,21.665001,21.665001,21.541435,1941574
2017-11-15,21.500000,21.950001,21.350000,21.950001,21.824810,4124319
2017-11-16,22.010000,22.705000,21.969999,22.219999,22.093269,4006429
2017-11-17,22.264999,22.285000,21.924999,22.080000,21.954067,2075086
2017-11-20,21.985001,22.325001,21.879999,22.260000,22.133041,1668461
2017-11-21,22.275000,22.360001,22.055000,22.084999,21.959038,2253427
2017-11-22,22.059999,22.184999,21.795000,21.920000,21.794981,3033966
2017-11-23,22.010000,22.860001,21.365000,22.785000,22.655046,6741131
2017-11-24,23.200001,23.254999,22.855000,22.855000,22.724648,3933373
2017-11-27,22.740000,23.125000,22.605000,22.900000,22.769390,2718812
2017-11-28,22.980000,23.170000,22.780001,22.950001,22.819107,2134551
2017-11-29,23.120001,23.410000,22.950001,23.174999,23.042822,3252472
2017-11-30,23.250000,23.430000,22.895000,22.990000,22.858877,2782440
2017-12-01,22.975000,23.020000,22.305000,22.315001,22.187729,3580631
2017-12-04,22.700001,23.004999,22.535000,22.860001,22.729620,2369720
2017-12-05,22.809999,22.879999,22.540001,22.559999,22.431330,2074004
2017-12-06,22.385000,22.559999,22.105000,22.485001,22.356758,2087786
2017-12-07,22.469999,22.674999,22.330000,22.549999,22.421387,1838424
2017-12-08,22.750000,23.020000,22.645000,22.900000,22.769390,2425231
2017-12-11,22.915001,23.309999,22.860001,23.129999,22.998079,2282820
2017-12-12,23.200001,23.450001,23.090000,23.389999,23.256596,2504471
2017-12-13,23.420000,23.924999,23.400000,23.840000,23.704029,3830165
2017-12-14,23.840000,23.915001,23.629999,23.730000,23.594656,2293414
2017-12-15,23.584999,23.670000,23.379999,23.445000,23.311283,5737404
2017-12-18,23.750000,24.180000,23.645000,23.900000,23.763687,3007971
2017-12-19,23.985001,24.190001,23.945000,24.125000,23.987404,2265044
2017-12-20,24.219999,24.270000,23.985001,24.105000,23.967518,2116642
2017-12-21,24.094999,24.260000,23.875000,24.160000,24.022205,1707283
2017-12-22,24.160000,24.254999,23.860001,23.930000,23.793516,1472490
2017-12-27,23.965000,24.139999,23.855000,24.045000,23.907860,1136606
2017-12-28,24.075001,24.155001,23.990000,24.040001,23.902889,1387864
2017-12-29,24.025000,24.305000,23.940001,24.215000,24.076891,1107603
2018-01-02,24.230000,24.270000,23.740000,24.080000,23.942661,1637738
2018-01-03,24.230000,25.230000,24.219999,25.100000,24.956844,4283992
2018-01-04,25.299999,25.350000,25.010000,25.080000,24.936958,2482894
2018-01-05,25.070000,25.150000,24.959999,25.040001,24.897186,1672809
2018-01-08,25.190001,25.230000,24.809999,24.900000,24.757984,2065477
2018-01-09,24.950001,25.170000,24.910000,25.010000,24.867357,2126593
2018-01-10,25.070000,25.120001,24.850000,25.000000,24.857414,1851747
2018-01-11,25.040001,25.299999,24.900000,25.250000,25.105988,1885491
2018-01-12,25.219999,25.660000,25.170000,25.480000,25.334675,2565309
2018-01-15,25.620001,25.830000,25.320000,25.360001,25.215361,1669326
2018-01-16,25.400000,25.490000,24.879999,25.010000,24.867357,2049336
2018-01-17,24.870001,25.129999,24.129999,25.030001,24.887243,3186497
2018-01-18,25.000000,25.180000,24.910000,25.180000,25.036388,1663550
2018-01-19,25.160000,26.410000,25.160000,26.299999,26.149998,6139649
2018-01-22,26.000000,26.100000,25.889999,25.969999,25.969999,1600070
2018-01-23,26.200001,26.200001,25.900000,26.010000,26.010000,1744291
2018-01-24,25.990000,26.520000,25.840000,25.840000,25.840000,2302336
2018-01-25,25.860001,26.160000,25.559999,25.740000,25.740000,1547198
2018-01-26,25.650000,26.420000,25.559999,26.410000,26.410000,2813814
2018-01-29,26.340000,26.469999,25.990000,26.129999,26.129999,1459474
2018-01-30,25.910000,26.020000,25.610001,25.700001,25.700001,1807276
2018-01-31,25.770000,25.900000,25.240000,25.340000,25.340000,2545623
2018-02-01,25.490000,25.590000,24.709999,24.900000,24.900000,2789777
2018-02-02,25.000000,25.000000,24.490000,24.520000,24.520000,2368542
2018-02-05,24.440001,24.680000,24.190001,24.639999,24.639999,1795791
2018-02-06,23.760000,24.230000,23.340000,23.770000,23.770000,3603119
2018-02-07,23.990000,24.190001,23.530001,24.030001,24.030001,2493810
2018-02-08,23.900000,23.950001,23.170000,23.250000,23.250000,2278072
2018-02-09,23.160000,23.370001,22.760000,22.980000,22.980000,3276913
2018-02-12,23.330000,23.690001,23.120001,23.209999,23.209999,2041012
2018-02-13,23.209999,23.320000,23.020000,23.100000,23.100000,1624751
2018-02-14,22.990000,23.200001,22.530001,22.940001,22.940001,4765885
2018-02-15,23.049999,23.590000,22.570000,22.790001,22.790001,3580042
2018-02-16,22.889999,23.080000,22.730000,22.850000,22.850000,2518556
2018-02-19,23.010000,23.040001,22.660000,22.730000,22.730000,2048524
2018-02-20,22.809999,23.100000,22.730000,23.040001,23.040001,2274781
2018-02-21,23.020000,23.100000,22.680000,22.879999,22.879999,1746361
2018-02-22,22.700001,22.820000,22.410000,22.790001,22.790001,1796807
2018-02-23,22.900000,22.950001,22.510000,22.680000,22.680000,1435346
2018-02-26,22.830000,22.920000,22.299999,22.480000,22.480000,2571799
2018-02-27,22.480000,22.500000,22.250000,22.299999,22.299999,1924376
2018-02-28,22.200001,22.590000,22.110001,22.320000,22.320000,2626459
2018-03-01,22.330000,22.360001,21.719999,21.820000,21.820000,2854360
2018-03-02,21.510000,21.600000,20.809999,20.930000,20.930000,4060608
2018-03-05,20.760000,21.170000,20.670000,21.049999,21.049999,2520559
2018-03-06,21.270000,21.629999,21.219999,21.340000,21.340000,2699231
2018-03-07,21.139999,21.620001,21.000000,21.540001,21.540001,2546264
2018-03-08,21.500000,21.590000,21.230000,21.530001,21.530001,2068735
2018-03-09,21.459999,21.820000,21.389999,21.660000,21.660000,2892361
2018-03-12,21.799999,21.799999,21.360001,21.530001,21.530001,1378609
2018-03-13,21.410000,21.889999,21.309999,21.379999,21.379999,2250934
2018-03-14,21.250000,21.610001,21.219999,21.590000,21.590000,2229364
2018-03-15,21.639999,21.879999,21.580000,21.809999,21.809999,2491155
2018-03-16,21.860001,21.950001,21.620001,21.850000,21.850000,3445266
2018-03-19,21.820000,21.910000,21.610001,21.660000,21.660000,2244768
2018-03-20,21.700001,21.969999,21.620001,21.790001,21.790001,2272992
2018-03-21,21.820000,22.260000,21.660000,22.160000,22.160000,2982639
2018-03-22,21.900000,22.160000,21.590000,21.820000,21.820000,3278041
2018-03-23,21.650000,21.650000,21.110001,21.160000,21.160000,3647834
2018-03-26,21.260000,21.610001,20.920000,21.100000,21.100000,2991202
2018-03-27,21.490000,21.770000,21.350000,21.540001,21.540001,3153342
2018-03-28,21.400000,21.480000,21.090000,21.250000,21.250000,3458300
2018-03-29,21.330000,21.600000,21.160000,21.190001,21.190001,4221254
2018-04-03,21.000000,21.360001,20.930000,21.309999,21.309999,3057192
2018-04-04,21.280001,21.290001,20.830000,21.010000,21.010000,2856088
2018-04-05,21.340000,21.920000,21.290001,21.920000,21.920000,3359985
2018-04-06,21.790001,21.790001,21.480000,21.639999,21.639999,2376519
2018-04-09,21.799999,21.940001,21.379999,21.680000,21.680000,2215701
2018-04-10,21.840000,22.160000,21.799999,22.160000,22.160000,3263686
2018-04-11,22.090000,22.209999,21.719999,21.940001,21.940001,2383014
2018-04-12,21.889999,22.180000,21.830000,22.129999,22.129999,2119066
2018-04-13,22.299999,22.510000,22.170000,22.340000,22.340000,2671782
2018-04-16,22.480000,22.530001,22.180000,22.180000,22.180000,1511847
2018-04-17,22.270000,22.730000,22.190001,22.719999,22.719999,2487476
2018-04-18,22.709999,23.090000,22.700001,23.040001,23.040001,2228118
2018-04-19,23.030001,23.129999,22.629999,22.790001,22.790001,2392333
2018-04-20,22.770000,22.889999,22.590000,22.709999,22.709999,2423571
2018-04-23,22.690001,22.780001,22.530001,22.610001,22.610001,2106045
2018-04-24,22.559999,22.940001,22.559999,22.690001,22.690001,2043511
2018-04-25,22.469999,22.469999,21.930000,22.180000,22.180000,2718057
2018-04-26,22.170000,22.240000,21.820000,21.889999,21.889999,2228441
2018-04-27,21.980000,22.309999,21.910000,22.100000,22.100000,2060159
2018-04-30,21.980000,22.040001,21.580000,21.600000,21.600000,2902763
2018-05-02,21.610001,21.980000,21.559999,21.940001,21.940001,2798797
2018-05-03,21.910000,21.930000,21.559999,21.650000,21.650000,2261889
2018-05-04,21.760000,21.990000,21.760000,21.940001,21.940001,1740948
2018-05-07,21.990000,22.420000,21.959999,22.400000,22.400000,1729370
2018-05-08,22.350000,22.610001,22.330000,22.549999,22.549999,2147732
2018-05-09,22.500000,22.879999,22.500000,22.820000,22.820000,2442373
2018-05-10,22.860001,23.000000,22.750000,22.889999,22.889999,1551438
2018-05-11,22.980000,23.340000,22.910000,23.209999,23.209999,2854275
2018-05-14,23.170000,23.290001,23.030001,23.250000,23.250000,2721173
2018-05-15,22.900000,22.900000,21.690001,21.750000,21.750000,7430175
2018-05-16,21.760000,21.920000,21.490000,21.490000,21.490000,4797891
2018-05-17,21.400000,21.580000,21.330000,21.530001,21.530001,2969112
2018-05-18,21.510000,21.770000,21.440001,21.559999,21.559999,3128615
2018-05-21,21.559999,21.559999,21.559999,21.559999,21.559999,0
2018-05-22,21.620001,23.620001,21.580000,23.620001,23.620001,9947751
2018-05-23,23.450001,23.500000,22.950001,23.080000,23.080000,4418458
2018-05-24,23.280001,23.889999,22.959999,23.010000,23.010000,4143411
2018-05-25,23.070000,23.180000,22.900000,23.080000,23.080000,2171679
2018-05-28,23.160000,23.230000,22.690001,22.730000,22.730000,1505557
2018-05-29,22.620001,22.879999,22.280001,22.840000,22.840000,2879012
2018-05-30,22.780001,23.070000,22.690001,22.860001,22.860001,2531968
2018-05-31,22.879999,23.299999,22.420000,22.570000,22.570000,4614569
2018-06-01,22.639999,23.309999,22.639999,23.120001,23.120001,2853774
2018-06-04,23.350000,23.459999,22.930000,22.969999,22.969999,1938053
2018-06-05,22.930000,23.559999,22.860001,23.209999,23.209999,2544133
2018-06-06,23.540001,23.740000,23.309999,23.719999,23.719999,2817447
2018-06-07,23.830000,24.100000,23.610001,23.889999,23.889999,3287245
2018-06-08,23.600000,23.660000,23.120001,23.360001,23.360001,3156902
2018-06-11,23.490000,23.709999,23.290001,23.459999,23.459999,1887085
2018-06-12,23.620001,23.660000,23.260000,23.330000,23.330000,1919010
2018-06-13,23.410000,23.900000,23.299999,23.780001,23.780001,3868188
2018-06-14,23.620001,23.780001,23.230000,23.690001,23.690001,3004473
2018-06-15,23.670000,23.770000,23.280001,23.320000,23.320000,5009110
2018-06-18,23.250000,23.290001,22.809999,22.900000,22.900000,2560753
2018-06-19,22.549999,22.580000,22.049999,22.389999,22.389999,3455639
2018-06-20,22.559999,22.559999,22.070000,22.070000,22.070000,2542079
2018-06-21,22.160000,22.309999,21.530001,21.650000,21.650000,3943211
2018-06-22,21.670000,21.680000,21.379999,21.480000,21.480000,2422261
2018-06-25,21.420000,21.430000,20.770000,20.770000,20.770000,3834968
2018-06-26,20.840000,20.879999,19.959999,20.219999,20.219999,6206320
2018-06-27,20.299999,21.299999,19.875000,20.959999,20.959999,6886214
2018-06-28,21.059999,21.070000,20.420000,20.600000,20.600000,4797850
2018-06-29,20.900000,21.070000,20.610001,20.820000,20.820000,3018416
2018-07-02,20.840000,20.840000,20.230000,20.620001,20.620001,3882705
2018-07-03,20.770000,20.959999,20.420000,20.840000,20.840000,3360988
2018-07-04,21.299999,21.430000,20.870001,20.940001,20.940001,2872636
2018-07-05,20.889999,21.600000,20.860001,21.490000,21.490000,3127948
2018-07-06,22.350000,22.900000,21.639999,22.010000,22.010000,6245969
2018-07-09,22.320000,22.389999,21.610001,21.760000,21.760000,2750355
2018-07-10,21.820000,21.959999,21.549999,21.549999,21.549999,2949951
2018-07-11,21.180000,21.309999,20.620001,20.629999,20.629999,4755373
2018-07-12,21.040001,21.129999,20.700001,20.900000,20.900000,2981723
2018-07-13,20.990000,21.180000,20.600000,20.620001,20.620001,3556359
2018-07-16,20.799999,20.860001,20.600000,20.600000,20.600000,2294054
2018-07-17,21.389999,22.629999,21.309999,22.480000,22.480000,9700858
2018-07-18,22.620001,23.100000,22.379999,22.870001,22.870001,6115482
2018-07-19,22.740000,23.010000,22.420000,22.540001,22.540001,3225207
2018-07-20,22.360001,22.440001,21.379999,21.850000,21.850000,4048118
2018-07-23,21.680000,22.680000,21.629999,22.680000,22.680000,4120474
2018-07-24,22.799999,23.320000,22.780001,23.190001,23.190001,2836730
2018-07-25,23.110001,23.420000,22.870001,22.920000,22.920000,2446620
2018-07-26,23.100000,23.570000,23.040001,23.450001,23.450001,2751909
2018-07-27,23.500000,23.700001,23.340000,23.370001,23.370001,2059512
2018-07-30,23.240000,23.240000,22.809999,22.920000,22.920000,2597148
2018-07-31,22.889999,23.020000,22.680000,22.820000,22.820000,2739451
2018-08-01,22.070000,22.900000,21.830000,22.670000,22.670000,3867784
2018-08-02,22.480000,22.580000,22.090000,22.420000,22.420000,2758624
2018-08-03,22.400000,22.440001,21.780001,21.870001,21.870001,2911952
2018-08-06,21.930000,21.930000,21.490000,21.670000,21.670000,2320192
2018-08-07,21.760000,21.910000,21.549999,21.559999,21.559999,2778209
2018-08-08,21.590000,21.680000,21.410000,21.459999,21.459999,2082734
2018-08-09,21.480000,21.629999,20.709999,21.090000,21.090000,3474982
2018-08-10,20.799999,20.820000,20.270000,20.459999,20.459999,4363403
2018-08-13,20.299999,20.450001,20.059999,20.299999,20.299999,2888161
2018-08-14,20.500000,20.600000,19.990000,20.209999,20.209999,3338980
2018-08-15,20.320000,20.320000,19.260000,19.430000,19.430000,5092266
2018-08-16,19.700001,19.879999,19.305000,19.680000,19.680000,4503718
2018-08-17,19.650000,19.695000,18.885000,19.330000,19.330000,5092373
2018-08-20,19.480000,19.844999,19.365000,19.690001,19.690001,3200661
2018-08-21,19.735001,19.955000,19.555000,19.900000,19.900000,2347926
2018-08-22,19.799999,19.830000,19.535000,19.740000,19.740000,2286225
2018-08-23,19.665001,19.855000,19.590000,19.665001,19.665001,2341331
2018-08-24,19.725000,19.940001,19.674999,19.850000,19.850000,2165035
2018-08-27,19.980000,20.219999,19.860001,20.200001,20.200001,1734278
2018-08-28,20.250000,20.309999,20.040001,20.200001,20.200001,1912276
2018-08-29,20.230000,20.370001,20.020000,20.139999,20.139999,2002551
2018-08-30,20.049999,20.270000,19.870001,20.129999,20.129999,2116695
2018-08-31,20.059999,20.059999,19.660000,19.910000,19.910000,2974983
2018-09-03,19.805000,19.900000,19.670000,19.754999,19.754999,1677205
2018-09-04,19.820000,20.040001,19.700001,19.870001,19.870001,2946867
2018-09-05,19.790001,19.820000,19.490000,19.610001,19.610001,2975106
2018-09-06,19.594999,19.745001,19.360001,19.365000,19.365000,2507962
2018-09-07,19.340000,19.490000,18.750000,18.860001,18.860001,4175128
2018-09-10,18.879999,19.295000,18.865000,19.165001,19.165001,2677582
2018-09-11,19.219999,19.230000,18.985001,19.135000,19.135000,2176079
2018-09-12,19.184999,19.385000,19.094999,19.315001,19.315001,2535857
2018-09-13,19.360001,19.455000,18.915001,18.930000,18.930000,3331707
2018-09-14,19.010000,19.235001,18.830000,18.965000,18.965000,2415629
2018-09-17,18.940001,19.299999,18.850000,19.245001,19.245001,2025464
2018-09-18,19.240000,19.695000,19.215000,19.680000,19.680000,2745123
2018-09-19,19.764999,20.250000,19.725000,20.180000,20.180000,3981247
2018-09-20,20.160000,20.530001,20.120001,20.320000,20.320000,2175182
2018-09-21,20.490000,20.670000,20.340000,20.459999,20.459999,3519614
2018-09-24,20.400000,20.450001,20.190001,20.270000,20.270000,1466855
2018-09-25,20.280001,20.760000,20.230000,20.540001,20.540001,2285249
2018-09-26,20.580000,20.690001,19.934999,20.070000,20.070000,2889106
2018-09-27,20.040001,23.500000,19.875000,22.059999,22.059999,15941402
2018-09-28,22.500000,22.879999,21.440001,21.740000,21.740000,6823114
2018-10-01,21.850000,21.990000,20.700001,20.760000,20.760000,6075370
2018-10-02,20.469999,20.990000,20.230000,20.900000,20.900000,4136567
2018-10-04,20.549999,21.160000,20.510000,20.750000,20.750000,3721302
2018-10-05,20.730000,20.750000,20.389999,20.600000,20.600000,3101646
2018-10-08,20.500000,20.920000,20.450001,20.670000,20.670000,1981287
2018-10-09,20.750000,21.040001,20.490000,20.860001,20.860001,2592278
2018-10-10,20.920000,20.959999,20.540001,20.559999,20.559999,2980675
2018-10-11,20.250000,20.350000,19.795000,19.920000,19.920000,3586690
2018-10-12,20.120001,20.340000,19.855000,20.100000,20.100000,2713029
2018-10-15,19.900000,20.070000,19.809999,19.985001,19.985001,2002376
2018-10-16,19.995001,20.120001,19.605000,20.090000,20.090000,3157727
2018-10-17,20.270000,20.410000,20.100000,20.330000,20.330000,2499999
2018-10-18,20.330000,20.490000,20.129999,20.150000,20.150000,2531428
2018-10-19,20.070000,20.070000,19.200001,19.340000,19.340000,4708688
2018-10-22,19.514999,19.629999,18.930000,18.969999,18.969999,3243031
2018-10-23,18.799999,18.855000,18.254999,18.420000,18.420000,4874670
2018-10-24,18.495001,18.500000,17.705000,18.000000,18.000000,6203347
2018-10-25,17.799999,18.525000,17.660000,18.245001,18.245001,5797275
2018-10-26,18.120001,18.129999,17.770000,17.895000,17.895000,4381492
2018-10-29,17.870001,18.715000,17.844999,18.280001,18.280001,4811793
2018-10-30,18.385000,18.410000,17.900000,18.120001,18.120001,3996130
2018-10-31,18.280001,18.805000,18.094999,18.575001,18.575001,3776022
2018-11-01,18.525000,19.000000,18.475000,18.825001,18.825001,3653562
2018-11-02,19.135000,19.584999,19.129999,19.165001,19.165001,3404658
2018-11-05,19.219999,19.309999,19.049999,19.094999,19.094999,1694668
2018-11-06,19.139999,19.254999,18.965000,19.080000,19.080000,1711134
2018-11-07,19.120001,19.485001,19.105000,19.235001,19.235001,1659719
2018-11-08,19.379999,19.504999,19.004999,19.059999,19.059999,1757517
2018-11-09,17.610001,18.090000,16.735001,17.330000,17.330000,14333765
2018-11-12,17.330000,17.520000,16.740000,16.799999,16.799999,4759488
2018-11-13,16.799999,16.825001,16.420000,16.785000,16.785000,5346419
2018-11-14,16.549999,16.834999,16.155001,16.660000,16.660000,4426113
2018-11-15,16.834999,16.965000,16.360001,16.514999,16.514999,2868913
2018-11-16,16.674999,16.760000,16.275000,16.405001,16.405001,2567690
2018-11-19,16.495001,16.665001,15.875000,16.094999,16.094999,5615837
2018-11-20,15.925000,16.090000,15.520000,15.750000,15.750000,4247817
2018-11-21,15.795000,16.344999,15.520000,16.139999,16.139999,7418290
2018-11-22,16.299999,16.330000,15.770000,16.200001,16.200001,2824644
2018-11-23,16.275000,16.520000,16.150000,16.264999,16.264999,2912005
2018-11-26,16.450001,16.775000,16.389999,16.594999,16.594999,3518959
2018-11-27,16.584999,16.645000,16.389999,16.445000,16.445000,2788906
2018-11-28,16.520000,16.850000,16.450001,16.665001,16.665001,2841572
2018-11-29,16.844999,16.995001,16.514999,16.730000,16.730000,2645826
2018-11-30,16.820000,16.820000,16.250000,16.495001,16.495001,2846596
2018-12-03,16.915001,17.344999,16.840000,17.129999,17.129999,4223930
2018-12-04,17.030001,17.230000,16.889999,16.905001,16.905001,2495141
2018-12-05,16.705000,16.850000,16.535000,16.700001,16.700001,1807750
2018-12-06,16.504999,16.514999,15.750000,15.980000,15.980000,3975959
2018-12-07,15.985000,16.309999,15.920000,15.920000,15.920000,2688533
2018-12-10,15.770000,15.815000,15.340000,15.480000,15.480000,3023937
2018-12-11,15.670000,15.930000,15.570000,15.725000,15.725000,2533707
2018-12-12,15.670000,15.910000,15.515000,15.800000,15.800000,2506460
2018-12-13,15.830000,15.975000,15.540000,15.755000,15.755000,1819706
2018-12-14,15.650000,15.705000,15.390000,15.605000,15.605000,2334611
2018-12-17,15.650000,15.790000,15.450000,15.615000,15.615000,2363349
2018-12-18,15.535000,15.850000,15.455000,15.790000,15.790000,3209126
2018-12-19,15.860000,16.155001,15.860000,16.080000,16.080000,3121362
2018-12-20,15.700000,15.815000,15.405000,15.500000,15.500000,4623623
2018-12-21,15.400000,15.615000,15.215000,15.275000,15.275000,6873600
2018-12-27,15.300000,15.505000,14.585000,14.810000,14.810000,3461223
2018-12-28,14.930000,15.180000,14.835000,14.980000,14.980000,1463916
